(kicad_symbol_lib (version 20201005) (generator kicad_symbol_editor)
  (symbol "Sensor_Motion:ADXL343" (in_bom yes) (on_board yes)
    (property "Reference" "U" (id 0) (at -8.89 11.43 0)
      (effects (font (size 1.27 1.27)))
    )
    (property "Value" "ADXL343" (id 1) (at -7.62 -11.43 0)
      (effects (font (size 1.27 1.27)))
    )
    (property "Footprint" "Package_LGA:LGA-14_3x5mm_P0.8mm_LayoutBorder1x6y" (id 2) (at 0 0 0)
      (effects (font (size 1.27 1.27)) hide)
    )
    (property "Datasheet" "https://www.analog.com/media/en/technical-documentation/data-sheets/ADXL343.pdf" (id 3) (at 0 0 0)
      (effects (font (size 1.27 1.27)) hide)
    )
    (property "ki_keywords" "3-axis accelerometer i2c spi mems" (id 4) (at 0 0 0)
      (effects (font (size 1.27 1.27)) hide)
    )
    (property "ki_description" "3-Axis MEMS Accelerometer, 2/4/8/16g range, I2C/SPI, LGA-14" (id 5) (at 0 0 0)
      (effects (font (size 1.27 1.27)) hide)
    )
    (property "ki_fp_filters" "*LGA*3x5mm*P0.8mm*" (id 6) (at 0 0 0)
      (effects (font (size 1.27 1.27)) hide)
    )
    (symbol "ADXL343_0_1"
      (rectangle (start -10.16 10.16) (end 10.16 -10.16)
        (stroke (width 0.254)) (fill (type background))
      )
    )
    (symbol "ADXL343_1_1"
      (pin power_in line (at 5.08 12.7 270) (length 2.54)
        (name "Vdd_I/O" (effects (font (size 1.27 1.27))))
        (number "1" (effects (font (size 1.27 1.27))))
      )
      (pin no_connect line (at -5.08 -10.16 90) (length 2.54) hide
        (name "NC" (effects (font (size 1.27 1.27))))
        (number "10" (effects (font (size 1.27 1.27))))
      )
      (pin passive line (at 5.08 -12.7 90) (length 2.54)
        (name "RES" (effects (font (size 1.27 1.27))))
        (number "11" (effects (font (size 1.27 1.27))))
      )
      (pin bidirectional line (at -12.7 2.54 0) (length 2.54)
        (name "SDO/ADDR" (effects (font (size 1.27 1.27))))
        (number "12" (effects (font (size 1.27 1.27))))
      )
      (pin bidirectional line (at -12.7 0 0) (length 2.54)
        (name "SDA/SDI/SDIO" (effects (font (size 1.27 1.27))))
        (number "13" (effects (font (size 1.27 1.27))))
      )
      (pin input line (at -12.7 -2.54 0) (length 2.54)
        (name "SCL/SCLK" (effects (font (size 1.27 1.27))))
        (number "14" (effects (font (size 1.27 1.27))))
      )
      (pin power_in line (at 0 -12.7 90) (length 2.54)
        (name "GND" (effects (font (size 1.27 1.27))))
        (number "2" (effects (font (size 1.27 1.27))))
      )
      (pin passive line (at -5.08 12.7 270) (length 2.54)
        (name "RES" (effects (font (size 1.27 1.27))))
        (number "3" (effects (font (size 1.27 1.27))))
      )
      (pin passive line (at 0 -12.7 90) (length 2.54) hide
        (name "GND" (effects (font (size 1.27 1.27))))
        (number "4" (effects (font (size 1.27 1.27))))
      )
      (pin passive line (at 0 -12.7 90) (length 2.54) hide
        (name "GND" (effects (font (size 1.27 1.27))))
        (number "5" (effects (font (size 1.27 1.27))))
      )
      (pin power_in line (at 0 12.7 270) (length 2.54)
        (name "Vs" (effects (font (size 1.27 1.27))))
        (number "6" (effects (font (size 1.27 1.27))))
      )
      (pin input line (at -12.7 -5.08 0) (length 2.54)
        (name "~CS" (effects (font (size 1.27 1.27))))
        (number "7" (effects (font (size 1.27 1.27))))
      )
      (pin output line (at 12.7 0 180) (length 2.54)
        (name "INT1" (effects (font (size 1.27 1.27))))
        (number "8" (effects (font (size 1.27 1.27))))
      )
      (pin output line (at 12.7 -2.54 180) (length 2.54)
        (name "INT2" (effects (font (size 1.27 1.27))))
        (number "9" (effects (font (size 1.27 1.27))))
      )
    )
  )
  (symbol "Sensor_Motion:BMF055" (in_bom yes) (on_board yes)
    (property "Reference" "U" (id 0) (at -16.51 21.59 0)
      (effects (font (size 1.27 1.27)) (justify right))
    )
    (property "Value" "BMF055" (id 1) (at 17.78 21.59 0)
      (effects (font (size 1.27 1.27)) (justify right))
    )
    (property "Footprint" "Package_LGA:LGA-28_5.2x3.8mm_P0.5mm" (id 2) (at 3.81 -21.59 0)
      (effects (font (size 1.27 1.27)) (justify left) hide)
    )
    (property "Datasheet" "https://ae-bst.resource.bosch.com/media/_tech/media/datasheets/BST-BMF055-DS000.pdf" (id 3) (at 0 5.08 0)
      (effects (font (size 1.27 1.27)) hide)
    )
    (property "ki_keywords" "9-axis motion sensor IMU SAMD20 ARM Cortex-M0+" (id 4) (at 0 0 0)
      (effects (font (size 1.27 1.27)) hide)
    )
    (property "ki_description" "Custom programmable 9-axis motion sensor" (id 5) (at 0 0 0)
      (effects (font (size 1.27 1.27)) hide)
    )
    (property "ki_fp_filters" "LGA*5.2x3.8mm*P0.5mm*" (id 6) (at 0 0 0)
      (effects (font (size 1.27 1.27)) hide)
    )
    (symbol "BMF055_0_1"
      (rectangle (start -17.78 20.32) (end 17.78 -20.32)
        (stroke (width 0.254)) (fill (type background))
      )
    )
    (symbol "BMF055_1_1"
      (pin bidirectional line (at -20.32 -2.54 0) (length 2.54)
        (name "PB03(ACC_GYRO_INT2)" (effects (font (size 1.27 1.27))))
        (number "1" (effects (font (size 1.27 1.27))))
      )
      (pin bidirectional line (at 20.32 12.7 180) (length 2.54)
        (name "PA28" (effects (font (size 1.27 1.27))))
        (number "10" (effects (font (size 1.27 1.27))))
      )
      (pin input line (at -20.32 17.78 0) (length 2.54)
        (name "~RESET" (effects (font (size 1.27 1.27))))
        (number "11" (effects (font (size 1.27 1.27))))
      )
      (pin bidirectional line (at 20.32 10.16 180) (length 2.54)
        (name "(GYRO_CSB)PA27" (effects (font (size 1.27 1.27))))
        (number "12" (effects (font (size 1.27 1.27))))
      )
      (pin bidirectional line (at -20.32 -10.16 0) (length 2.54)
        (name "PB23(ACC_GYRO_INT1)" (effects (font (size 1.27 1.27))))
        (number "13" (effects (font (size 1.27 1.27))))
      )
      (pin input line (at 20.32 7.62 180) (length 2.54)
        (name "PA24" (effects (font (size 1.27 1.27))))
        (number "14" (effects (font (size 1.27 1.27))))
      )
      (pin bidirectional line (at 20.32 5.08 180) (length 2.54)
        (name "PA23" (effects (font (size 1.27 1.27))))
        (number "15" (effects (font (size 1.27 1.27))))
      )
      (pin bidirectional line (at 20.32 2.54 180) (length 2.54)
        (name "PA22" (effects (font (size 1.27 1.27))))
        (number "16" (effects (font (size 1.27 1.27))))
      )
      (pin bidirectional line (at 20.32 0 180) (length 2.54)
        (name "PA21" (effects (font (size 1.27 1.27))))
        (number "17" (effects (font (size 1.27 1.27))))
      )
      (pin bidirectional line (at 20.32 -2.54 180) (length 2.54)
        (name "PA20" (effects (font (size 1.27 1.27))))
        (number "18" (effects (font (size 1.27 1.27))))
      )
      (pin bidirectional line (at -20.32 -7.62 0) (length 2.54)
        (name "PB17" (effects (font (size 1.27 1.27))))
        (number "19" (effects (font (size 1.27 1.27))))
      )
      (pin power_in line (at -2.54 -22.86 90) (length 2.54)
        (name "GND" (effects (font (size 1.27 1.27))))
        (number "2" (effects (font (size 1.27 1.27))))
      )
      (pin bidirectional line (at -20.32 -5.08 0) (length 2.54)
        (name "PB16" (effects (font (size 1.27 1.27))))
        (number "20" (effects (font (size 1.27 1.27))))
      )
      (pin bidirectional line (at 20.32 -5.08 180) (length 2.54)
        (name "(MISO)PA19" (effects (font (size 1.27 1.27))))
        (number "21" (effects (font (size 1.27 1.27))))
      )
      (pin bidirectional line (at 20.32 -7.62 180) (length 2.54)
        (name "(ACC_MAG_CSB)PA18" (effects (font (size 1.27 1.27))))
        (number "22" (effects (font (size 1.27 1.27))))
      )
      (pin bidirectional line (at 20.32 -10.16 180) (length 2.54)
        (name "(SCLK)PA17" (effects (font (size 1.27 1.27))))
        (number "23" (effects (font (size 1.27 1.27))))
      )
      (pin bidirectional line (at 20.32 -12.7 180) (length 2.54)
        (name "(MOSI)PA16" (effects (font (size 1.27 1.27))))
        (number "24" (effects (font (size 1.27 1.27))))
      )
      (pin power_in line (at 2.54 -22.86 90) (length 2.54)
        (name "GNDIO" (effects (font (size 1.27 1.27))))
        (number "25" (effects (font (size 1.27 1.27))))
      )
      (pin bidirectional line (at 20.32 -15.24 180) (length 2.54)
        (name "PA01" (effects (font (size 1.27 1.27))))
        (number "26" (effects (font (size 1.27 1.27))))
      )
      (pin bidirectional line (at 20.32 -17.78 180) (length 2.54)
        (name "PA00" (effects (font (size 1.27 1.27))))
        (number "27" (effects (font (size 1.27 1.27))))
      )
      (pin power_in line (at 2.54 22.86 270) (length 2.54)
        (name "VDDIO" (effects (font (size 1.27 1.27))))
        (number "28" (effects (font (size 1.27 1.27))))
      )
      (pin power_in line (at -2.54 22.86 270) (length 2.54)
        (name "VDD" (effects (font (size 1.27 1.27))))
        (number "3" (effects (font (size 1.27 1.27))))
      )
      (pin bidirectional line (at -20.32 0 0) (length 2.54)
        (name "PB02" (effects (font (size 1.27 1.27))))
        (number "4" (effects (font (size 1.27 1.27))))
      )
      (pin bidirectional line (at -20.32 2.54 0) (length 2.54)
        (name "PB01" (effects (font (size 1.27 1.27))))
        (number "5" (effects (font (size 1.27 1.27))))
      )
      (pin bidirectional line (at -20.32 5.08 0) (length 2.54)
        (name "PB00" (effects (font (size 1.27 1.27))))
        (number "6" (effects (font (size 1.27 1.27))))
      )
      (pin bidirectional line (at 20.32 17.78 180) (length 2.54)
        (name "(SWDIO)PA31" (effects (font (size 1.27 1.27))))
        (number "7" (effects (font (size 1.27 1.27))))
      )
      (pin bidirectional line (at 20.32 15.24 180) (length 2.54)
        (name "(SWCLK)PA30" (effects (font (size 1.27 1.27))))
        (number "8" (effects (font (size 1.27 1.27))))
      )
      (pin bidirectional line (at -20.32 15.24 0) (length 2.54)
        (name "CAP" (effects (font (size 1.27 1.27))))
        (number "9" (effects (font (size 1.27 1.27))))
      )
    )
  )
  (symbol "Sensor_Motion:BMI160" (in_bom yes) (on_board yes)
    (property "Reference" "U" (id 0) (at -10.16 8.89 0)
      (effects (font (size 1.27 1.27)) (justify left))
    )
    (property "Value" "BMI160" (id 1) (at 7.62 8.89 0)
      (effects (font (size 1.27 1.27)) (justify right))
    )
    (property "Footprint" "Package_LGA:Bosch_LGA-14_3x2.5mm_P0.5mm" (id 2) (at 0 0 0)
      (effects (font (size 1.27 1.27)) hide)
    )
    (property "Datasheet" "https://ae-bst.resource.bosch.com/media/_tech/media/datasheets/BST-BMI160-DS000.pdf" (id 3) (at -17.78 21.59 0)
      (effects (font (size 1.27 1.27)) hide)
    )
    (property "ki_keywords" "Bosh IMU small low power inertial measurement unit" (id 4) (at 0 0 0)
      (effects (font (size 1.27 1.27)) hide)
    )
    (property "ki_description" "Small, low power inertial measurement unit, LGA-14" (id 5) (at 0 0 0)
      (effects (font (size 1.27 1.27)) hide)
    )
    (property "ki_fp_filters" "Bosch*LGA*3x2.5mm*P0.5mm*" (id 6) (at 0 0 0)
      (effects (font (size 1.27 1.27)) hide)
    )
    (symbol "BMI160_1_1"
      (rectangle (start -10.16 7.62) (end 7.62 -10.16)
        (stroke (width 0.254)) (fill (type background))
      )
      (pin bidirectional line (at -12.7 5.08 0) (length 2.54)
        (name "SDO" (effects (font (size 1.27 1.27))))
        (number "1" (effects (font (size 1.27 1.27))))
      )
      (pin bidirectional line (at 10.16 -2.54 180) (length 2.54)
        (name "OCSB" (effects (font (size 1.27 1.27))))
        (number "10" (effects (font (size 1.27 1.27))))
      )
      (pin bidirectional line (at 10.16 -5.08 180) (length 2.54)
        (name "OSDO" (effects (font (size 1.27 1.27))))
        (number "11" (effects (font (size 1.27 1.27))))
      )
      (pin input line (at -12.7 -2.54 0) (length 2.54)
        (name "CSB" (effects (font (size 1.27 1.27))))
        (number "12" (effects (font (size 1.27 1.27))))
      )
      (pin input line (at -12.7 0 0) (length 2.54)
        (name "SCx" (effects (font (size 1.27 1.27))))
        (number "13" (effects (font (size 1.27 1.27))))
      )
      (pin bidirectional line (at -12.7 2.54 0) (length 2.54)
        (name "SDx" (effects (font (size 1.27 1.27))))
        (number "14" (effects (font (size 1.27 1.27))))
      )
      (pin bidirectional line (at 10.16 2.54 180) (length 2.54)
        (name "ASDx" (effects (font (size 1.27 1.27))))
        (number "2" (effects (font (size 1.27 1.27))))
      )
      (pin output line (at 10.16 0 180) (length 2.54)
        (name "ASCx" (effects (font (size 1.27 1.27))))
        (number "3" (effects (font (size 1.27 1.27))))
      )
      (pin bidirectional line (at -12.7 -5.08 0) (length 2.54)
        (name "INT1" (effects (font (size 1.27 1.27))))
        (number "4" (effects (font (size 1.27 1.27))))
      )
      (pin power_in line (at -2.54 10.16 270) (length 2.54)
        (name "VDDIO" (effects (font (size 1.27 1.27))))
        (number "5" (effects (font (size 1.27 1.27))))
      )
      (pin power_in line (at -2.54 -12.7 90) (length 2.54)
        (name "GNDIO" (effects (font (size 1.27 1.27))))
        (number "6" (effects (font (size 1.27 1.27))))
      )
      (pin power_in line (at 0 -12.7 90) (length 2.54)
        (name "GND" (effects (font (size 1.27 1.27))))
        (number "7" (effects (font (size 1.27 1.27))))
      )
      (pin power_in line (at 0 10.16 270) (length 2.54)
        (name "VDD" (effects (font (size 1.27 1.27))))
        (number "8" (effects (font (size 1.27 1.27))))
      )
      (pin bidirectional line (at -12.7 -7.62 0) (length 2.54)
        (name "INT2" (effects (font (size 1.27 1.27))))
        (number "9" (effects (font (size 1.27 1.27))))
      )
    )
  )
  (symbol "Sensor_Motion:BNO055" (in_bom yes) (on_board yes)
    (property "Reference" "U" (id 0) (at -11.43 16.51 0)
      (effects (font (size 1.27 1.27)) (justify right))
    )
    (property "Value" "BNO055" (id 1) (at 12.7 16.51 0)
      (effects (font (size 1.27 1.27)) (justify right))
    )
    (property "Footprint" "Package_LGA:LGA-28_5.2x3.8mm_P0.5mm" (id 2) (at 6.35 -16.51 0)
      (effects (font (size 1.27 1.27)) (justify left) hide)
    )
    (property "Datasheet" "https://ae-bst.resource.bosch.com/media/_tech/media/datasheets/BST_BNO055_DS000_14.pdf" (id 3) (at 0 5.08 0)
      (effects (font (size 1.27 1.27)) hide)
    )
    (property "ki_keywords" "IMU, Sensor Fusion, I2C, UART" (id 4) (at 0 0 0)
      (effects (font (size 1.27 1.27)) hide)
    )
    (property "ki_description" "Intelligent 9-axis absolute orientation sensor, LGA-28" (id 5) (at 0 0 0)
      (effects (font (size 1.27 1.27)) hide)
    )
    (property "ki_fp_filters" "LGA*5.2x3.8mm*P0.5mm*" (id 6) (at 0 0 0)
      (effects (font (size 1.27 1.27)) hide)
    )
    (symbol "BNO055_0_1"
      (rectangle (start -12.7 15.24) (end 12.7 -15.24)
        (stroke (width 0.254)) (fill (type background))
      )
    )
    (symbol "BNO055_1_1"
      (pin no_connect line (at -12.7 10.16 0) (length 2.54) hide
        (name "PIN1" (effects (font (size 1.27 1.27))))
        (number "1" (effects (font (size 1.27 1.27))))
      )
      (pin output line (at -15.24 0 0) (length 2.54)
        (name "BL_IND" (effects (font (size 1.27 1.27))))
        (number "10" (effects (font (size 1.27 1.27))))
      )
      (pin input line (at -15.24 12.7 0) (length 2.54)
        (name "~RESET" (effects (font (size 1.27 1.27))))
        (number "11" (effects (font (size 1.27 1.27))))
      )
      (pin no_connect line (at 12.7 10.16 180) (length 2.54) hide
        (name "PIN12" (effects (font (size 1.27 1.27))))
        (number "12" (effects (font (size 1.27 1.27))))
      )
      (pin no_connect line (at 12.7 7.62 180) (length 2.54) hide
        (name "PIN13" (effects (font (size 1.27 1.27))))
        (number "13" (effects (font (size 1.27 1.27))))
      )
      (pin output line (at -15.24 7.62 0) (length 2.54)
        (name "INT" (effects (font (size 1.27 1.27))))
        (number "14" (effects (font (size 1.27 1.27))))
      )
      (pin passive line (at 2.54 -17.78 90) (length 2.54) hide
        (name "GNDIO" (effects (font (size 1.27 1.27))))
        (number "15" (effects (font (size 1.27 1.27))))
      )
      (pin passive line (at 2.54 -17.78 90) (length 2.54) hide
        (name "GNDIO" (effects (font (size 1.27 1.27))))
        (number "16" (effects (font (size 1.27 1.27))))
      )
      (pin input line (at -15.24 -12.7 0) (length 2.54)
        (name "COM3" (effects (font (size 1.27 1.27))))
        (number "17" (effects (font (size 1.27 1.27))))
      )
      (pin bidirectional line (at -15.24 -10.16 0) (length 2.54)
        (name "COM2" (effects (font (size 1.27 1.27))))
        (number "18" (effects (font (size 1.27 1.27))))
      )
      (pin bidirectional line (at -15.24 -7.62 0) (length 2.54)
        (name "COM1" (effects (font (size 1.27 1.27))))
        (number "19" (effects (font (size 1.27 1.27))))
      )
      (pin power_in line (at -2.54 -17.78 90) (length 2.54)
        (name "GND" (effects (font (size 1.27 1.27))))
        (number "2" (effects (font (size 1.27 1.27))))
      )
      (pin bidirectional line (at -15.24 -5.08 0) (length 2.54)
        (name "COM0" (effects (font (size 1.27 1.27))))
        (number "20" (effects (font (size 1.27 1.27))))
      )
      (pin no_connect line (at 12.7 5.08 180) (length 2.54) hide
        (name "PIN21" (effects (font (size 1.27 1.27))))
        (number "21" (effects (font (size 1.27 1.27))))
      )
      (pin no_connect line (at 12.7 2.54 180) (length 2.54) hide
        (name "PIN22" (effects (font (size 1.27 1.27))))
        (number "22" (effects (font (size 1.27 1.27))))
      )
      (pin no_connect line (at 12.7 -2.54 180) (length 2.54) hide
        (name "PIN23" (effects (font (size 1.27 1.27))))
        (number "23" (effects (font (size 1.27 1.27))))
      )
      (pin no_connect line (at 12.7 -5.08 180) (length 2.54) hide
        (name "PIN24" (effects (font (size 1.27 1.27))))
        (number "24" (effects (font (size 1.27 1.27))))
      )
      (pin power_in line (at 2.54 -17.78 90) (length 2.54)
        (name "GNDIO" (effects (font (size 1.27 1.27))))
        (number "25" (effects (font (size 1.27 1.27))))
      )
      (pin output line (at 15.24 12.7 180) (length 2.54)
        (name "XOUT32" (effects (font (size 1.27 1.27))))
        (number "26" (effects (font (size 1.27 1.27))))
      )
      (pin input line (at 15.24 0 180) (length 2.54)
        (name "XIN32" (effects (font (size 1.27 1.27))))
        (number "27" (effects (font (size 1.27 1.27))))
      )
      (pin power_in line (at 2.54 17.78 270) (length 2.54)
        (name "VDDIO" (effects (font (size 1.27 1.27))))
        (number "28" (effects (font (size 1.27 1.27))))
      )
      (pin power_in line (at -2.54 17.78 270) (length 2.54)
        (name "VDD" (effects (font (size 1.27 1.27))))
        (number "3" (effects (font (size 1.27 1.27))))
      )
      (pin input line (at -15.24 2.54 0) (length 2.54)
        (name "~BOOT_LOAD_PIN" (effects (font (size 1.27 1.27))))
        (number "4" (effects (font (size 1.27 1.27))))
      )
      (pin input line (at 15.24 -10.16 180) (length 2.54)
        (name "PS1" (effects (font (size 1.27 1.27))))
        (number "5" (effects (font (size 1.27 1.27))))
      )
      (pin input line (at 15.24 -7.62 180) (length 2.54)
        (name "PS0" (effects (font (size 1.27 1.27))))
        (number "6" (effects (font (size 1.27 1.27))))
      )
      (pin no_connect line (at -12.7 5.08 0) (length 2.54) hide
        (name "PIN7" (effects (font (size 1.27 1.27))))
        (number "7" (effects (font (size 1.27 1.27))))
      )
      (pin no_connect line (at -12.7 -2.54 0) (length 2.54) hide
        (name "PIN8" (effects (font (size 1.27 1.27))))
        (number "8" (effects (font (size 1.27 1.27))))
      )
      (pin passive line (at 15.24 -12.7 180) (length 2.54)
        (name "CAP" (effects (font (size 1.27 1.27))))
        (number "9" (effects (font (size 1.27 1.27))))
      )
    )
  )
  (symbol "Sensor_Motion:ICM-20602" (in_bom yes) (on_board yes)
    (property "Reference" "U" (id 0) (at -10.16 11.43 0)
      (effects (font (size 1.27 1.27)) (justify left))
    )
    (property "Value" "ICM-20602" (id 1) (at 10.16 11.43 0)
      (effects (font (size 1.27 1.27)))
    )
    (property "Footprint" "Package_LGA:LGA-16_3x3mm_P0.5mm_LayoutBorder3x5y" (id 2) (at 0 6.35 0)
      (effects (font (size 1.27 1.27)) hide)
    )
    (property "Datasheet" "http://www.invensense.com/wp-content/uploads/2016/10/DS-000176-ICM-20602-v1.0.pdf" (id 3) (at 1.27 24.13 0)
      (effects (font (size 1.27 1.27)) hide)
    )
    (property "ki_keywords" "accelerometer gyro mems motion" (id 4) (at 0 0 0)
      (effects (font (size 1.27 1.27)) hide)
    )
    (property "ki_description" "High performance 6-Axis MEMS motion tracking, SPI/I2C interface, LGA-16" (id 5) (at 0 0 0)
      (effects (font (size 1.27 1.27)) hide)
    )
    (property "ki_fp_filters" "LGA*3x3mm*P0.5mm*" (id 6) (at 0 0 0)
      (effects (font (size 1.27 1.27)) hide)
    )
    (symbol "ICM-20602_0_1"
      (rectangle (start -10.16 10.16) (end 10.16 -10.16)
        (stroke (width 0.254)) (fill (type background))
      )
    )
    (symbol "ICM-20602_1_1"
      (pin power_in line (at 2.54 12.7 270) (length 2.54)
        (name "VDDIO" (effects (font (size 1.27 1.27))))
        (number "1" (effects (font (size 1.27 1.27))))
      )
      (pin passive line (at 0 -12.7 90) (length 2.54) hide
        (name "GND" (effects (font (size 1.27 1.27))))
        (number "10" (effects (font (size 1.27 1.27))))
      )
      (pin passive line (at 0 -12.7 90) (length 2.54) hide
        (name "GND" (effects (font (size 1.27 1.27))))
        (number "11" (effects (font (size 1.27 1.27))))
      )
      (pin passive line (at 0 -12.7 90) (length 2.54) hide
        (name "GND" (effects (font (size 1.27 1.27))))
        (number "12" (effects (font (size 1.27 1.27))))
      )
      (pin power_in line (at 0 -12.7 90) (length 2.54)
        (name "GND" (effects (font (size 1.27 1.27))))
        (number "13" (effects (font (size 1.27 1.27))))
      )
      (pin passive line (at 12.7 -2.54 180) (length 2.54)
        (name "REGOUT" (effects (font (size 1.27 1.27))))
        (number "14" (effects (font (size 1.27 1.27))))
      )
      (pin passive line (at 0 -12.7 90) (length 2.54) hide
        (name "GND" (effects (font (size 1.27 1.27))))
        (number "15" (effects (font (size 1.27 1.27))))
      )
      (pin power_in line (at 0 12.7 270) (length 2.54)
        (name "VDD" (effects (font (size 1.27 1.27))))
        (number "16" (effects (font (size 1.27 1.27))))
      )
      (pin input line (at -12.7 -2.54 0) (length 2.54)
        (name "SCL/SPC" (effects (font (size 1.27 1.27))))
        (number "2" (effects (font (size 1.27 1.27))))
      )
      (pin bidirectional line (at -12.7 0 0) (length 2.54)
        (name "SDA/SDI" (effects (font (size 1.27 1.27))))
        (number "3" (effects (font (size 1.27 1.27))))
      )
      (pin bidirectional line (at -12.7 2.54 0) (length 2.54)
        (name "SAO/SD0" (effects (font (size 1.27 1.27))))
        (number "4" (effects (font (size 1.27 1.27))))
      )
      (pin input line (at -12.7 -5.08 0) (length 2.54)
        (name "~CS" (effects (font (size 1.27 1.27))))
        (number "5" (effects (font (size 1.27 1.27))))
      )
      (pin output line (at 12.7 2.54 180) (length 2.54)
        (name "INT" (effects (font (size 1.27 1.27))))
        (number "6" (effects (font (size 1.27 1.27))))
      )
      (pin no_connect line (at -10.16 5.08 0) (length 2.54) hide
        (name "RESV" (effects (font (size 1.27 1.27))))
        (number "7" (effects (font (size 1.27 1.27))))
      )
      (pin input line (at 12.7 0 180) (length 2.54)
        (name "FSYNC" (effects (font (size 1.27 1.27))))
        (number "8" (effects (font (size 1.27 1.27))))
      )
      (pin passive line (at 0 -12.7 90) (length 2.54) hide
        (name "GND" (effects (font (size 1.27 1.27))))
        (number "9" (effects (font (size 1.27 1.27))))
      )
    )
  )
  (symbol "Sensor_Motion:ICM-20948" (in_bom yes) (on_board yes)
    (property "Reference" "U" (id 0) (at -11.43 16.51 0)
      (effects (font (size 1.27 1.27)))
    )
    (property "Value" "ICM-20948" (id 1) (at 7.62 -16.51 0)
      (effects (font (size 1.27 1.27)))
    )
    (property "Footprint" "Sensor_Motion:InvenSense_QFN-24_3x3mm_P0.4mm" (id 2) (at 0 -25.4 0)
      (effects (font (size 1.27 1.27)) hide)
    )
    (property "Datasheet" "http://www.invensense.com/wp-content/uploads/2016/06/DS-000189-ICM-20948-v1.3.pdf" (id 3) (at 0 -3.81 0)
      (effects (font (size 1.27 1.27)) hide)
    )
    (property "ki_keywords" "mems magnetometer" (id 4) (at 0 0 0)
      (effects (font (size 1.27 1.27)) hide)
    )
    (property "ki_description" "InvenSense 9-Axis Motion Sensor, Accelerometer, Gyroscope, Compass, I2C/SPI, QFN-24" (id 5) (at 0 0 0)
      (effects (font (size 1.27 1.27)) hide)
    )
    (property "ki_fp_filters" "InvenSense?QFN*3x3mm*P0.4mm*" (id 6) (at 0 0 0)
      (effects (font (size 1.27 1.27)) hide)
    )
    (symbol "ICM-20948_0_1"
      (rectangle (start -10.16 15.24) (end 10.16 -15.24)
        (stroke (width 0.254)) (fill (type background))
      )
    )
    (symbol "ICM-20948_1_1"
      (pin no_connect line (at -10.16 12.7 0) (length 2.54) hide
        (name "NC" (effects (font (size 1.27 1.27))))
        (number "1" (effects (font (size 1.27 1.27))))
      )
      (pin passive line (at 12.7 -5.08 180) (length 2.54)
        (name "REGOUT" (effects (font (size 1.27 1.27))))
        (number "10" (effects (font (size 1.27 1.27))))
      )
      (pin input line (at -12.7 -5.08 0) (length 2.54)
        (name "FSYNC" (effects (font (size 1.27 1.27))))
        (number "11" (effects (font (size 1.27 1.27))))
      )
      (pin output line (at -12.7 -7.62 0) (length 2.54)
        (name "INT1" (effects (font (size 1.27 1.27))))
        (number "12" (effects (font (size 1.27 1.27))))
      )
      (pin power_in line (at 2.54 17.78 270) (length 2.54)
        (name "VDD" (effects (font (size 1.27 1.27))))
        (number "13" (effects (font (size 1.27 1.27))))
      )
      (pin no_connect line (at 10.16 7.62 180) (length 2.54) hide
        (name "NC" (effects (font (size 1.27 1.27))))
        (number "14" (effects (font (size 1.27 1.27))))
      )
      (pin no_connect line (at 10.16 5.08 180) (length 2.54) hide
        (name "NC" (effects (font (size 1.27 1.27))))
        (number "15" (effects (font (size 1.27 1.27))))
      )
      (pin no_connect line (at 10.16 -7.62 180) (length 2.54) hide
        (name "NC" (effects (font (size 1.27 1.27))))
        (number "16" (effects (font (size 1.27 1.27))))
      )
      (pin no_connect line (at 10.16 -10.16 180) (length 2.54) hide
        (name "NC" (effects (font (size 1.27 1.27))))
        (number "17" (effects (font (size 1.27 1.27))))
      )
      (pin power_in line (at 0 -17.78 90) (length 2.54)
        (name "GND" (effects (font (size 1.27 1.27))))
        (number "18" (effects (font (size 1.27 1.27))))
      )
      (pin no_connect line (at 10.16 -12.7 180) (length 2.54) hide
        (name "RESV" (effects (font (size 1.27 1.27))))
        (number "19" (effects (font (size 1.27 1.27))))
      )
      (pin no_connect line (at -10.16 10.16 0) (length 2.54) hide
        (name "NC" (effects (font (size 1.27 1.27))))
        (number "2" (effects (font (size 1.27 1.27))))
      )
      (pin passive line (at 0 -17.78 90) (length 2.54) hide
        (name "GND" (effects (font (size 1.27 1.27))))
        (number "20" (effects (font (size 1.27 1.27))))
      )
      (pin bidirectional line (at 12.7 2.54 180) (length 2.54)
        (name "AUX_DA" (effects (font (size 1.27 1.27))))
        (number "21" (effects (font (size 1.27 1.27))))
      )
      (pin input line (at -12.7 0 0) (length 2.54)
        (name "~CS" (effects (font (size 1.27 1.27))))
        (number "22" (effects (font (size 1.27 1.27))))
      )
      (pin input line (at -12.7 2.54 0) (length 2.54)
        (name "SCL/SCLK" (effects (font (size 1.27 1.27))))
        (number "23" (effects (font (size 1.27 1.27))))
      )
      (pin bidirectional line (at -12.7 5.08 0) (length 2.54)
        (name "SDA/SDI" (effects (font (size 1.27 1.27))))
        (number "24" (effects (font (size 1.27 1.27))))
      )
      (pin no_connect line (at -10.16 -2.54 0) (length 2.54) hide
        (name "NC" (effects (font (size 1.27 1.27))))
        (number "3" (effects (font (size 1.27 1.27))))
      )
      (pin no_connect line (at -10.16 -10.16 0) (length 2.54) hide
        (name "NC" (effects (font (size 1.27 1.27))))
        (number "4" (effects (font (size 1.27 1.27))))
      )
      (pin no_connect line (at -10.16 -12.7 0) (length 2.54) hide
        (name "NC" (effects (font (size 1.27 1.27))))
        (number "5" (effects (font (size 1.27 1.27))))
      )
      (pin no_connect line (at 10.16 10.16 180) (length 2.54) hide
        (name "NC" (effects (font (size 1.27 1.27))))
        (number "6" (effects (font (size 1.27 1.27))))
      )
      (pin output line (at 12.7 0 180) (length 2.54)
        (name "AUX_CL" (effects (font (size 1.27 1.27))))
        (number "7" (effects (font (size 1.27 1.27))))
      )
      (pin power_in line (at -2.54 17.78 270) (length 2.54)
        (name "VDDIO" (effects (font (size 1.27 1.27))))
        (number "8" (effects (font (size 1.27 1.27))))
      )
      (pin bidirectional line (at -12.7 7.62 0) (length 2.54)
        (name "SDO/AD0" (effects (font (size 1.27 1.27))))
        (number "9" (effects (font (size 1.27 1.27))))
      )
    )
  )
  (symbol "Sensor_Motion:KX022-1020" (in_bom yes) (on_board yes)
    (property "Reference" "U" (id 0) (at -5.08 11.43 0)
      (effects (font (size 1.27 1.27)) (justify right))
    )
    (property "Value" "KX022-1020" (id 1) (at 3.81 11.43 0)
      (effects (font (size 1.27 1.27)) (justify left))
    )
    (property "Footprint" "Package_LGA:LGA-12_2x2mm_P0.5mm" (id 2) (at 3.81 13.97 0)
      (effects (font (size 1.27 1.27)) (justify left) hide)
    )
    (property "Datasheet" "http://kionixfs.kionix.com/en/datasheet/KX022-1020%20Specifications%20Rev%2012.0.pdf" (id 3) (at -8.89 0 0)
      (effects (font (size 1.27 1.27)) hide)
    )
    (property "ki_keywords" "3-axis accelerometer spi i2c mems" (id 4) (at 0 0 0)
      (effects (font (size 1.27 1.27)) hide)
    )
    (property "ki_description" "3-Axis Accelerometer, 2/4/8g range, 256 byte buffer, I2C/SPI interface, LGA-12" (id 5) (at 0 0 0)
      (effects (font (size 1.27 1.27)) hide)
    )
    (property "ki_fp_filters" "LGA*2x2mm*P0.5mm*" (id 6) (at 0 0 0)
      (effects (font (size 1.27 1.27)) hide)
    )
    (symbol "KX022-1020_0_1"
      (rectangle (start -7.62 10.16) (end 10.16 -10.16)
        (stroke (width 0.254)) (fill (type background))
      )
    )
    (symbol "KX022-1020_1_1"
      (pin bidirectional line (at -10.16 0 0) (length 2.54)
        (name "SDO/ADDR" (effects (font (size 1.27 1.27))))
        (number "1" (effects (font (size 1.27 1.27))))
      )
      (pin input line (at -10.16 5.08 0) (length 2.54)
        (name "~CS" (effects (font (size 1.27 1.27))))
        (number "10" (effects (font (size 1.27 1.27))))
      )
      (pin passive line (at 12.7 -5.08 180) (length 2.54)
        (name "NC" (effects (font (size 1.27 1.27))))
        (number "11" (effects (font (size 1.27 1.27))))
      )
      (pin input line (at -10.16 -2.54 0) (length 2.54)
        (name "SCLK/SCL" (effects (font (size 1.27 1.27))))
        (number "12" (effects (font (size 1.27 1.27))))
      )
      (pin bidirectional line (at -10.16 2.54 0) (length 2.54)
        (name "SDI/SDA" (effects (font (size 1.27 1.27))))
        (number "2" (effects (font (size 1.27 1.27))))
      )
      (pin power_in line (at 2.54 12.7 270) (length 2.54)
        (name "IO_VDD" (effects (font (size 1.27 1.27))))
        (number "3" (effects (font (size 1.27 1.27))))
      )
      (pin input line (at 12.7 -7.62 180) (length 2.54)
        (name "TRIG" (effects (font (size 1.27 1.27))))
        (number "4" (effects (font (size 1.27 1.27))))
      )
      (pin output line (at 12.7 2.54 180) (length 2.54)
        (name "INT1" (effects (font (size 1.27 1.27))))
        (number "5" (effects (font (size 1.27 1.27))))
      )
      (pin output line (at 12.7 0 180) (length 2.54)
        (name "INT2" (effects (font (size 1.27 1.27))))
        (number "6" (effects (font (size 1.27 1.27))))
      )
      (pin power_in line (at 0 12.7 270) (length 2.54)
        (name "VDD" (effects (font (size 1.27 1.27))))
        (number "7" (effects (font (size 1.27 1.27))))
      )
      (pin power_in line (at 0 -12.7 90) (length 2.54)
        (name "GND" (effects (font (size 1.27 1.27))))
        (number "9" (effects (font (size 1.27 1.27))))
      )
    )
  )
  (symbol "Sensor_Motion:KX122-1042" (extends "KX022-1020")
    (property "Reference" "U" (id 0) (at -5.08 11.43 0)
      (effects (font (size 1.27 1.27)) (justify right))
    )
    (property "Value" "KX122-1042" (id 1) (at 3.81 11.43 0)
      (effects (font (size 1.27 1.27)) (justify left))
    )
    (property "Footprint" "Package_LGA:LGA-12_2x2mm_P0.5mm" (id 2) (at 3.81 13.97 0)
      (effects (font (size 1.27 1.27)) (justify left) hide)
    )
    (property "Datasheet" "http://kionixfs.kionix.com/en/datasheet/KX112-1042-Specifications-Rev-6.0.pdf" (id 3) (at -8.89 0 0)
      (effects (font (size 1.27 1.27)) hide)
    )
    (property "ki_keywords" "3-axis accelerometer spi i2c mems" (id 4) (at 0 0 0)
      (effects (font (size 1.27 1.27)) hide)
    )
    (property "ki_description" "3-Axis Accelerometer, 2/4/8g range, 2048 byte buffer, I2C/SPI interface, LGA-12" (id 5) (at 0 0 0)
      (effects (font (size 1.27 1.27)) hide)
    )
    (property "ki_fp_filters" "LGA*2x2mm*P0.5mm*" (id 6) (at 0 0 0)
      (effects (font (size 1.27 1.27)) hide)
    )
  )
  (symbol "Sensor_Motion:KX222-1054" (extends "KX022-1020")
    (property "Reference" "U" (id 0) (at -5.08 11.43 0)
      (effects (font (size 1.27 1.27)) (justify right))
    )
    (property "Value" "KX222-1054" (id 1) (at 3.81 11.43 0)
      (effects (font (size 1.27 1.27)) (justify left))
    )
    (property "Footprint" "Package_LGA:LGA-12_2x2mm_P0.5mm" (id 2) (at 3.81 13.97 0)
      (effects (font (size 1.27 1.27)) (justify left) hide)
    )
    (property "Datasheet" "http://kionixfs.kionix.com/en/datasheet/KX222-1054-Specifications-Rev-2.0.pdf" (id 3) (at -8.89 0 0)
      (effects (font (size 1.27 1.27)) hide)
    )
    (property "ki_keywords" "3-axis accelerometer spi i2c mems" (id 4) (at 0 0 0)
      (effects (font (size 1.27 1.27)) hide)
    )
    (property "ki_description" "3-Axis Accelerometer, 8/16/32g range, 2048 byte buffer, I2C/SPI interface, LGA-12" (id 5) (at 0 0 0)
      (effects (font (size 1.27 1.27)) hide)
    )
    (property "ki_fp_filters" "LGA*2x2mm*P0.5mm*" (id 6) (at 0 0 0)
      (effects (font (size 1.27 1.27)) hide)
    )
  )
  (symbol "Sensor_Motion:KXTJ3-1057" (in_bom yes) (on_board yes)
    (property "Reference" "U" (id 0) (at -1.27 11.43 0)
      (effects (font (size 1.27 1.27)) (justify left))
    )
    (property "Value" "KXTJ3-1057" (id 1) (at -1.27 8.89 0)
      (effects (font (size 1.27 1.27)) (justify left))
    )
    (property "Footprint" "Package_LGA:Kionix_LGA-12_2x2mm_P0.5mm_LayoutBorder2x4y" (id 2) (at 0 0 0)
      (effects (font (size 1.27 1.27)) hide)
    )
    (property "Datasheet" "http://kionixfs.kionix.com/en/datasheet/KXTJ3-1057-Specifications-Rev-5.0.pdf" (id 3) (at -25.4 -12.7 0)
      (effects (font (size 1.27 1.27)) hide)
    )
    (property "ki_keywords" "accelerometer, tri-axis, i2c" (id 4) (at 0 0 0)
      (effects (font (size 1.27 1.27)) hide)
    )
    (property "ki_description" "±2g / 4g / 8g / 16g Tri-Axis Digital Accelerometer, I2C, 1.71-3.6V, LGA-12" (id 5) (at 0 0 0)
      (effects (font (size 1.27 1.27)) hide)
    )
    (property "ki_fp_filters" "Kionix*LGA-12*2x2mm*P0.5mm*" (id 6) (at 0 0 0)
      (effects (font (size 1.27 1.27)) hide)
    )
    (symbol "KXTJ3-1057_0_0"
      (text "X" (at -1.27 0.635 0)
        (effects (font (size 0.635 0.635) bold))
      )
      (text "Y" (at 1.27 0.635 0)
        (effects (font (size 0.635 0.635) bold))
      )
      (text "Z" (at 0 -1.27 0)
        (effects (font (size 0.635 0.635) bold))
      )
    )
    (symbol "KXTJ3-1057_0_1"
      (rectangle (start -7.62 7.62) (end 7.62 -7.62)
        (stroke (width 0.254)) (fill (type background))
      )
      (polyline
        (pts
          (xy 0 0)
          (xy 0 3.302)
          (xy 0.254 2.794)
          (xy 0 3.302)
          (xy -0.254 2.794)
          (xy 0 3.302)
          (xy 0 0)
          (xy 2.54 -1.524)
          (xy 2.286 -1.016)
          (xy 2.54 -1.524)
          (xy 2.032 -1.524)
          (xy 2.54 -1.524)
          (xy 0 0)
          (xy -2.54 -1.524)
          (xy -2.286 -1.016)
          (xy -2.54 -1.524)
          (xy -2.032 -1.524)
        )
        (stroke (width 0)) (fill (type none))
      )
    )
    (symbol "KXTJ3-1057_1_1"
      (pin input line (at 10.16 -2.54 180) (length 2.54)
        (name "ADDR" (effects (font (size 1.27 1.27))))
        (number "1" (effects (font (size 1.27 1.27))))
      )
      (pin power_in line (at -2.54 10.16 270) (length 2.54)
        (name "VDD" (effects (font (size 1.27 1.27))))
        (number "10" (effects (font (size 1.27 1.27))))
      )
      (pin power_in line (at -5.08 10.16 270) (length 2.54)
        (name "IO_VDD" (effects (font (size 1.27 1.27))))
        (number "11" (effects (font (size 1.27 1.27))))
      )
      (pin input line (at 10.16 2.54 180) (length 2.54)
        (name "SCL" (effects (font (size 1.27 1.27))))
        (number "12" (effects (font (size 1.27 1.27))))
      )
      (pin bidirectional line (at 10.16 0 180) (length 2.54)
        (name "SDA" (effects (font (size 1.27 1.27))))
        (number "2" (effects (font (size 1.27 1.27))))
      )
      (pin passive line (at -5.08 10.16 270) (length 2.54) hide
        (name "IO_VDD" (effects (font (size 1.27 1.27))))
        (number "3" (effects (font (size 1.27 1.27))))
      )
      (pin passive line (at 10.16 -5.08 180) (length 2.54)
        (name "RES" (effects (font (size 1.27 1.27))))
        (number "4" (effects (font (size 1.27 1.27))))
      )
      (pin output line (at 10.16 5.08 180) (length 2.54)
        (name "INT" (effects (font (size 1.27 1.27))))
        (number "5" (effects (font (size 1.27 1.27))))
      )
      (pin passive line (at -5.08 -10.16 90) (length 2.54) hide
        (name "GND" (effects (font (size 1.27 1.27))))
        (number "6" (effects (font (size 1.27 1.27))))
      )
      (pin passive line (at -2.54 10.16 270) (length 2.54) hide
        (name "VDD" (effects (font (size 1.27 1.27))))
        (number "7" (effects (font (size 1.27 1.27))))
      )
      (pin power_in line (at -5.08 -10.16 90) (length 2.54)
        (name "GND" (effects (font (size 1.27 1.27))))
        (number "8" (effects (font (size 1.27 1.27))))
      )
      (pin passive line (at -5.08 -10.16 90) (length 2.54) hide
        (name "GND" (effects (font (size 1.27 1.27))))
        (number "9" (effects (font (size 1.27 1.27))))
      )
    )
  )
  (symbol "Sensor_Motion:L3GD20" (in_bom yes) (on_board yes)
    (property "Reference" "U" (id 0) (at 6.35 15.24 0)
      (effects (font (size 1.27 1.27)) (justify left))
    )
    (property "Value" "L3GD20" (id 1) (at 6.35 12.7 0)
      (effects (font (size 1.27 1.27)) (justify left))
    )
    (property "Footprint" "Package_LGA:LGA-16_4x4mm_P0.65mm_LayoutBorder4x4y" (id 2) (at 0 -19.05 0)
      (effects (font (size 1.27 1.27) italic) hide)
    )
    (property "Datasheet" "http://www.st.com/st-web-ui/static/active/en/resource/technical/document/datasheet/DM00036465.pdf" (id 3) (at 0 0 0)
      (effects (font (size 1.27 1.27)) hide)
    )
    (property "ki_keywords" "3-Axis MEMS Gyroscope" (id 4) (at 0 0 0)
      (effects (font (size 1.27 1.27)) hide)
    )
    (property "ki_description" "[Not recommended for new designs] 16-bit 3 Axis Digital MEMS Gyroscope, LGA-16" (id 5) (at 0 0 0)
      (effects (font (size 1.27 1.27)) hide)
    )
    (property "ki_fp_filters" "LGA*4x4mm*P0.65mm*LayoutBorder4x4y*" (id 6) (at 0 0 0)
      (effects (font (size 1.27 1.27)) hide)
    )
    (symbol "L3GD20_0_1"
      (rectangle (start -13.97 11.43) (end 13.97 -11.43)
        (stroke (width 0.254)) (fill (type background))
      )
    )
    (symbol "L3GD20_1_1"
      (pin power_in line (at -2.54 15.24 270) (length 3.81)
        (name "VDDIO" (effects (font (size 1.27 1.27))))
        (number "1" (effects (font (size 1.27 1.27))))
      )
      (pin passive line (at -17.78 -5.08 0) (length 3.81)
        (name "RES(GND)" (effects (font (size 1.27 1.27))))
        (number "10" (effects (font (size 1.27 1.27))))
      )
      (pin passive line (at -17.78 -7.62 0) (length 3.81)
        (name "RES(GND)" (effects (font (size 1.27 1.27))))
        (number "11" (effects (font (size 1.27 1.27))))
      )
      (pin passive line (at -17.78 -10.16 0) (length 3.81)
        (name "RES(GND)" (effects (font (size 1.27 1.27))))
        (number "12" (effects (font (size 1.27 1.27))))
      )
      (pin power_in line (at 0 -15.24 90) (length 3.81)
        (name "GND" (effects (font (size 1.27 1.27))))
        (number "13" (effects (font (size 1.27 1.27))))
      )
      (pin passive line (at -17.78 5.08 0) (length 3.81)
        (name "RES(CAP)" (effects (font (size 1.27 1.27))))
        (number "14" (effects (font (size 1.27 1.27))))
      )
      (pin passive line (at -17.78 10.16 0) (length 3.81)
        (name "RES(VDD)" (effects (font (size 1.27 1.27))))
        (number "15" (effects (font (size 1.27 1.27))))
      )
      (pin power_in line (at 2.54 15.24 270) (length 3.81)
        (name "VDD" (effects (font (size 1.27 1.27))))
        (number "16" (effects (font (size 1.27 1.27))))
      )
      (pin input line (at 17.78 7.62 180) (length 3.81)
        (name "SCL/SPC" (effects (font (size 1.27 1.27))))
        (number "2" (effects (font (size 1.27 1.27))))
      )
      (pin bidirectional line (at 17.78 5.08 180) (length 3.81)
        (name "SDA/SDI/SDO" (effects (font (size 1.27 1.27))))
        (number "3" (effects (font (size 1.27 1.27))))
      )
      (pin output line (at 17.78 2.54 180) (length 3.81)
        (name "SDO/SA0" (effects (font (size 1.27 1.27))))
        (number "4" (effects (font (size 1.27 1.27))))
      )
      (pin input line (at 17.78 0 180) (length 3.81)
        (name "CS" (effects (font (size 1.27 1.27))))
        (number "5" (effects (font (size 1.27 1.27))))
      )
      (pin output line (at 17.78 -7.62 180) (length 3.81)
        (name "DRDY/INT2" (effects (font (size 1.27 1.27))))
        (number "6" (effects (font (size 1.27 1.27))))
      )
      (pin output line (at 17.78 -5.08 180) (length 3.81)
        (name "INT1" (effects (font (size 1.27 1.27))))
        (number "7" (effects (font (size 1.27 1.27))))
      )
      (pin passive line (at -17.78 0 0) (length 3.81)
        (name "RES(GND)" (effects (font (size 1.27 1.27))))
        (number "8" (effects (font (size 1.27 1.27))))
      )
      (pin passive line (at -17.78 -2.54 0) (length 3.81)
        (name "RES(GND)" (effects (font (size 1.27 1.27))))
        (number "9" (effects (font (size 1.27 1.27))))
      )
    )
  )
  (symbol "Sensor_Motion:LIS2DH" (in_bom yes) (on_board yes)
    (property "Reference" "U" (id 0) (at -5.08 11.43 0)
      (effects (font (size 1.27 1.27)) (justify right))
    )
    (property "Value" "LIS2DH" (id 1) (at 3.81 11.43 0)
      (effects (font (size 1.27 1.27)) (justify left))
    )
    (property "Footprint" "Package_LGA:LGA-14_2x2mm_P0.35mm_LayoutBorder3x4y" (id 2) (at 0 -15.24 0)
      (effects (font (size 1.27 1.27)) hide)
    )
    (property "Datasheet" "http://www.st.com/web/en/resource/technical/document/datasheet/DM00042751.pdf" (id 3) (at -8.89 0 0)
      (effects (font (size 1.27 1.27)) hide)
    )
    (property "ki_keywords" "3-axis accelerometer spi mems" (id 4) (at 0 0 0)
      (effects (font (size 1.27 1.27)) hide)
    )
    (property "ki_description" "3-Axis Accelerometer, 2/4/8/16g range, I2C/SPI interface" (id 5) (at 0 0 0)
      (effects (font (size 1.27 1.27)) hide)
    )
    (property "ki_fp_filters" "LGA-*_2x2mm_P0.35mm*LayoutBorder3x4y*" (id 6) (at 0 0 0)
      (effects (font (size 1.27 1.27)) hide)
    )
    (symbol "LIS2DH_0_1"
      (rectangle (start -7.62 10.16) (end 10.16 -10.16)
        (stroke (width 0.254)) (fill (type background))
      )
    )
    (symbol "LIS2DH_1_1"
      (pin input line (at -10.16 -2.54 0) (length 2.54)
        (name "SCL/SPC" (effects (font (size 1.27 1.27))))
        (number "1" (effects (font (size 1.27 1.27))))
      )
      (pin power_in line (at -2.54 -12.7 90) (length 2.54)
        (name "GND" (effects (font (size 1.27 1.27))))
        (number "10" (effects (font (size 1.27 1.27))))
      )
      (pin power_in line (at 0 -12.7 90) (length 2.54)
        (name "GND" (effects (font (size 1.27 1.27))))
        (number "11" (effects (font (size 1.27 1.27))))
      )
      (pin power_in line (at 2.54 -12.7 90) (length 2.54)
        (name "GND" (effects (font (size 1.27 1.27))))
        (number "12" (effects (font (size 1.27 1.27))))
      )
      (pin power_in line (at 5.08 -12.7 90) (length 2.54)
        (name "GND" (effects (font (size 1.27 1.27))))
        (number "13" (effects (font (size 1.27 1.27))))
      )
      (pin power_in line (at 7.62 -12.7 90) (length 2.54)
        (name "GND" (effects (font (size 1.27 1.27))))
        (number "14" (effects (font (size 1.27 1.27))))
      )
      (pin bidirectional line (at -10.16 2.54 0) (length 2.54)
        (name "SDA/SDI" (effects (font (size 1.27 1.27))))
        (number "2" (effects (font (size 1.27 1.27))))
      )
      (pin bidirectional line (at -10.16 0 0) (length 2.54)
        (name "SA0/SDO" (effects (font (size 1.27 1.27))))
        (number "3" (effects (font (size 1.27 1.27))))
      )
      (pin input line (at -10.16 5.08 0) (length 2.54)
        (name "~CS" (effects (font (size 1.27 1.27))))
        (number "4" (effects (font (size 1.27 1.27))))
      )
      (pin output line (at 12.7 0 180) (length 2.54)
        (name "INT2" (effects (font (size 1.27 1.27))))
        (number "5" (effects (font (size 1.27 1.27))))
      )
      (pin output line (at 12.7 2.54 180) (length 2.54)
        (name "INT1" (effects (font (size 1.27 1.27))))
        (number "6" (effects (font (size 1.27 1.27))))
      )
      (pin power_in line (at 2.54 12.7 270) (length 2.54)
        (name "Vdd_IO" (effects (font (size 1.27 1.27))))
        (number "7" (effects (font (size 1.27 1.27))))
      )
      (pin power_in line (at 0 12.7 270) (length 2.54)
        (name "Vdd" (effects (font (size 1.27 1.27))))
        (number "8" (effects (font (size 1.27 1.27))))
      )
      (pin power_in line (at -5.08 -12.7 90) (length 2.54)
        (name "GND" (effects (font (size 1.27 1.27))))
        (number "9" (effects (font (size 1.27 1.27))))
      )
    )
  )
  (symbol "Sensor_Motion:LIS2HH12" (in_bom yes) (on_board yes)
    (property "Reference" "U" (id 0) (at -5.08 11.43 0)
      (effects (font (size 1.27 1.27)) (justify right))
    )
    (property "Value" "LIS2HH12" (id 1) (at 3.81 11.43 0)
      (effects (font (size 1.27 1.27)) (justify left))
    )
    (property "Footprint" "Package_LGA:LGA-12_2x2mm_P0.5mm" (id 2) (at 3.81 13.97 0)
      (effects (font (size 1.27 1.27)) (justify left) hide)
    )
    (property "Datasheet" "www.st.com/resource/en/datasheet/lis2hh12.pdf" (id 3) (at -8.89 0 0)
      (effects (font (size 1.27 1.27)) hide)
    )
    (property "ki_keywords" "3-axis accelerometer spi mems" (id 4) (at 0 0 0)
      (effects (font (size 1.27 1.27)) hide)
    )
    (property "ki_description" "3-Axis Accelerometer, 2/4/8g range, I2C/SPI interface" (id 5) (at 0 0 0)
      (effects (font (size 1.27 1.27)) hide)
    )
    (property "ki_fp_filters" "LGA*2x2mm*P0.5mm*" (id 6) (at 0 0 0)
      (effects (font (size 1.27 1.27)) hide)
    )
    (symbol "LIS2HH12_0_1"
      (rectangle (start -7.62 10.16) (end 10.16 -10.16)
        (stroke (width 0.254)) (fill (type background))
      )
    )
    (symbol "LIS2HH12_1_1"
      (pin input line (at -10.16 -2.54 0) (length 2.54)
        (name "SCL/SPC" (effects (font (size 1.27 1.27))))
        (number "1" (effects (font (size 1.27 1.27))))
      )
      (pin power_in line (at 2.54 12.7 270) (length 2.54)
        (name "Vdd_IO" (effects (font (size 1.27 1.27))))
        (number "10" (effects (font (size 1.27 1.27))))
      )
      (pin output line (at 12.7 0 180) (length 2.54)
        (name "INT2" (effects (font (size 1.27 1.27))))
        (number "11" (effects (font (size 1.27 1.27))))
      )
      (pin output line (at 12.7 2.54 180) (length 2.54)
        (name "INT1" (effects (font (size 1.27 1.27))))
        (number "12" (effects (font (size 1.27 1.27))))
      )
      (pin input line (at -10.16 5.08 0) (length 2.54)
        (name "~CS" (effects (font (size 1.27 1.27))))
        (number "2" (effects (font (size 1.27 1.27))))
      )
      (pin bidirectional line (at -10.16 0 0) (length 2.54)
        (name "SA0/SDO" (effects (font (size 1.27 1.27))))
        (number "3" (effects (font (size 1.27 1.27))))
      )
      (pin bidirectional line (at -10.16 2.54 0) (length 2.54)
        (name "SDA/SDI" (effects (font (size 1.27 1.27))))
        (number "4" (effects (font (size 1.27 1.27))))
      )
      (pin passive line (at 12.7 -7.62 180) (length 2.54)
        (name "RES" (effects (font (size 1.27 1.27))))
        (number "5" (effects (font (size 1.27 1.27))))
      )
      (pin power_in line (at -2.54 -12.7 90) (length 2.54)
        (name "GND" (effects (font (size 1.27 1.27))))
        (number "6" (effects (font (size 1.27 1.27))))
      )
      (pin power_in line (at 0 -12.7 90) (length 2.54)
        (name "GND" (effects (font (size 1.27 1.27))))
        (number "7" (effects (font (size 1.27 1.27))))
      )
      (pin power_in line (at 2.54 -12.7 90) (length 2.54)
        (name "GND" (effects (font (size 1.27 1.27))))
        (number "8" (effects (font (size 1.27 1.27))))
      )
      (pin power_in line (at 0 12.7 270) (length 2.54)
        (name "Vdd" (effects (font (size 1.27 1.27))))
        (number "9" (effects (font (size 1.27 1.27))))
      )
    )
  )
  (symbol "Sensor_Motion:LIS2DE12" (extends "LIS2HH12")
    (property "Reference" "U" (id 0) (at -5.08 11.43 0)
      (effects (font (size 1.27 1.27)) (justify right))
    )
    (property "Value" "LIS2DE12" (id 1) (at 3.81 11.43 0)
      (effects (font (size 1.27 1.27)) (justify left))
    )
    (property "Footprint" "Package_LGA:LGA-12_2x2mm_P0.5mm" (id 2) (at 3.81 13.97 0)
      (effects (font (size 1.27 1.27)) (justify left) hide)
    )
    (property "Datasheet" "https://www.st.com/resource/en/datasheet/lis2DE12.pdf" (id 3) (at -8.89 0 0)
      (effects (font (size 1.27 1.27)) hide)
    )
    (property "ki_keywords" "3-axis accelerometer spi mems" (id 4) (at 0 0 0)
      (effects (font (size 1.27 1.27)) hide)
    )
    (property "ki_description" "3-Axis Accelerometer, 2/4/8/16g range, I2C/SPI interface" (id 5) (at 0 0 0)
      (effects (font (size 1.27 1.27)) hide)
    )
    (property "ki_fp_filters" "LGA*2x2mm*P0.5mm*" (id 6) (at 0 0 0)
      (effects (font (size 1.27 1.27)) hide)
    )
  )
  (symbol "Sensor_Motion:LIS331HH" (in_bom yes) (on_board yes)
    (property "Reference" "U" (id 0) (at -7.62 11.43 0)
      (effects (font (size 1.27 1.27)) (justify left))
    )
    (property "Value" "LIS331HH" (id 1) (at 3.81 11.43 0)
      (effects (font (size 1.27 1.27)) (justify left))
    )
    (property "Footprint" "Package_LGA:LGA-16_3x3mm_P0.5mm_LayoutBorder3x5y" (id 2) (at 0 -15.24 0)
      (effects (font (size 1.27 1.27)) hide)
    )
    (property "Datasheet" "http://www.st.com/st-web-ui/static/active/en/resource/technical/document/datasheet/CD00250937.pdf" (id 3) (at -2.54 6.35 0)
      (effects (font (size 1.27 1.27)) hide)
    )
    (property "ki_keywords" "3-axis accelerometer spi i2c mems" (id 4) (at 0 0 0)
      (effects (font (size 1.27 1.27)) hide)
    )
    (property "ki_description" "3-Axis Accelerometer, 6/12/24g range, 1000Hz, I2C and SPI interface" (id 5) (at 0 0 0)
      (effects (font (size 1.27 1.27)) hide)
    )
    (property "ki_fp_filters" "LGA-*3x3mm*P0.5mm*LayoutBorder3x5y*" (id 6) (at 0 0 0)
      (effects (font (size 1.27 1.27)) hide)
    )
    (symbol "LIS331HH_0_1"
      (rectangle (start -7.62 10.16) (end 10.16 -10.16)
        (stroke (width 0.254)) (fill (type background))
      )
    )
    (symbol "LIS331HH_1_1"
      (pin power_in line (at 2.54 12.7 270) (length 2.54)
        (name "Vdd" (effects (font (size 1.27 1.27))))
        (number "1" (effects (font (size 1.27 1.27))))
      )
      (pin power_in line (at 5.08 -12.7 90) (length 2.54)
        (name "GND" (effects (font (size 1.27 1.27))))
        (number "10" (effects (font (size 1.27 1.27))))
      )
      (pin output line (at 12.7 2.54 180) (length 2.54)
        (name "INT1" (effects (font (size 1.27 1.27))))
        (number "11" (effects (font (size 1.27 1.27))))
      )
      (pin power_in line (at 0 -12.7 90) (length 2.54)
        (name "GND" (effects (font (size 1.27 1.27))))
        (number "12" (effects (font (size 1.27 1.27))))
      )
      (pin power_in line (at -2.54 -12.7 90) (length 2.54)
        (name "GND" (effects (font (size 1.27 1.27))))
        (number "13" (effects (font (size 1.27 1.27))))
      )
      (pin power_in line (at 0 12.7 270) (length 2.54)
        (name "Vdd" (effects (font (size 1.27 1.27))))
        (number "14" (effects (font (size 1.27 1.27))))
      )
      (pin power_in line (at -2.54 12.7 270) (length 2.54)
        (name "Vdd" (effects (font (size 1.27 1.27))))
        (number "15" (effects (font (size 1.27 1.27))))
      )
      (pin power_in line (at 2.54 -12.7 90) (length 2.54)
        (name "GND" (effects (font (size 1.27 1.27))))
        (number "16" (effects (font (size 1.27 1.27))))
      )
      (pin no_connect line (at 10.16 -2.54 180) (length 2.54) hide
        (name "NC" (effects (font (size 1.27 1.27))))
        (number "2" (effects (font (size 1.27 1.27))))
      )
      (pin no_connect line (at 10.16 -5.08 180) (length 2.54) hide
        (name "NC" (effects (font (size 1.27 1.27))))
        (number "3" (effects (font (size 1.27 1.27))))
      )
      (pin input line (at -10.16 -2.54 0) (length 2.54)
        (name "SCL/SPC" (effects (font (size 1.27 1.27))))
        (number "4" (effects (font (size 1.27 1.27))))
      )
      (pin power_in line (at -5.08 -12.7 90) (length 2.54)
        (name "GND" (effects (font (size 1.27 1.27))))
        (number "5" (effects (font (size 1.27 1.27))))
      )
      (pin bidirectional line (at -10.16 2.54 0) (length 2.54)
        (name "SDA/SDI" (effects (font (size 1.27 1.27))))
        (number "6" (effects (font (size 1.27 1.27))))
      )
      (pin output line (at -10.16 0 0) (length 2.54)
        (name "SA0/SDO" (effects (font (size 1.27 1.27))))
        (number "7" (effects (font (size 1.27 1.27))))
      )
      (pin input line (at -10.16 5.08 0) (length 2.54)
        (name "~CS" (effects (font (size 1.27 1.27))))
        (number "8" (effects (font (size 1.27 1.27))))
      )
      (pin output line (at 12.7 0 180) (length 2.54)
        (name "INT2" (effects (font (size 1.27 1.27))))
        (number "9" (effects (font (size 1.27 1.27))))
      )
    )
  )
  (symbol "Sensor_Motion:LIS3DH" (in_bom yes) (on_board yes)
    (property "Reference" "U" (id 0) (at -7.62 11.43 0)
      (effects (font (size 1.27 1.27)))
    )
    (property "Value" "LIS3DH" (id 1) (at 6.35 11.43 0)
      (effects (font (size 1.27 1.27)))
    )
    (property "Footprint" "Package_LGA:LGA-16_3x3mm_P0.5mm_LayoutBorder3x5y" (id 2) (at 2.54 -26.67 0)
      (effects (font (size 1.27 1.27)) hide)
    )
    (property "Datasheet" "https://www.st.com/resource/en/datasheet/cd00274221.pdf" (id 3) (at -5.08 -2.54 0)
      (effects (font (size 1.27 1.27)) hide)
    )
    (property "ki_keywords" "3-axis accelerometer i2c spi mems" (id 4) (at 0 0 0)
      (effects (font (size 1.27 1.27)) hide)
    )
    (property "ki_description" "3-Axis Accelerometer, 2/4/8/16g range, I2C/SPI interface, LGA-16" (id 5) (at 0 0 0)
      (effects (font (size 1.27 1.27)) hide)
    )
    (property "ki_fp_filters" "LGA*3x3mm*P0.5mm*LayoutBorder3x5y*" (id 6) (at 0 0 0)
      (effects (font (size 1.27 1.27)) hide)
    )
    (symbol "LIS3DH_0_1"
      (rectangle (start -10.16 10.16) (end 10.16 -12.7)
        (stroke (width 0.254)) (fill (type background))
      )
    )
    (symbol "LIS3DH_1_1"
      (pin power_in line (at -2.54 12.7 270) (length 2.54)
        (name "VDD_IO" (effects (font (size 1.27 1.27))))
        (number "1" (effects (font (size 1.27 1.27))))
      )
      (pin passive line (at 0 -15.24 90) (length 2.54) hide
        (name "GND" (effects (font (size 1.27 1.27))))
        (number "10" (effects (font (size 1.27 1.27))))
      )
      (pin output line (at -12.7 5.08 0) (length 2.54)
        (name "INT1" (effects (font (size 1.27 1.27))))
        (number "11" (effects (font (size 1.27 1.27))))
      )
      (pin power_in line (at 0 -15.24 90) (length 2.54)
        (name "GND" (effects (font (size 1.27 1.27))))
        (number "12" (effects (font (size 1.27 1.27))))
      )
      (pin input line (at 12.7 -2.54 180) (length 2.54)
        (name "ADC3" (effects (font (size 1.27 1.27))))
        (number "13" (effects (font (size 1.27 1.27))))
      )
      (pin power_in line (at 2.54 12.7 270) (length 2.54)
        (name "VDD" (effects (font (size 1.27 1.27))))
        (number "14" (effects (font (size 1.27 1.27))))
      )
      (pin input line (at 12.7 0 180) (length 2.54)
        (name "ADC2" (effects (font (size 1.27 1.27))))
        (number "15" (effects (font (size 1.27 1.27))))
      )
      (pin input line (at 12.7 2.54 180) (length 2.54)
        (name "ADC1" (effects (font (size 1.27 1.27))))
        (number "16" (effects (font (size 1.27 1.27))))
      )
      (pin no_connect line (at 10.16 5.08 180) (length 2.54) hide
        (name "NC" (effects (font (size 1.27 1.27))))
        (number "2" (effects (font (size 1.27 1.27))))
      )
      (pin no_connect line (at 10.16 7.62 180) (length 2.54) hide
        (name "NC" (effects (font (size 1.27 1.27))))
        (number "3" (effects (font (size 1.27 1.27))))
      )
      (pin input line (at -12.7 -5.08 0) (length 2.54)
        (name "SCL/SPC" (effects (font (size 1.27 1.27))))
        (number "4" (effects (font (size 1.27 1.27))))
      )
      (pin passive line (at 0 -15.24 90) (length 2.54) hide
        (name "GND" (effects (font (size 1.27 1.27))))
        (number "5" (effects (font (size 1.27 1.27))))
      )
      (pin bidirectional line (at -12.7 -2.54 0) (length 2.54)
        (name "SDA/SDI/SDO" (effects (font (size 1.27 1.27))))
        (number "6" (effects (font (size 1.27 1.27))))
      )
      (pin bidirectional line (at -12.7 0 0) (length 2.54)
        (name "SDO/SA0" (effects (font (size 1.27 1.27))))
        (number "7" (effects (font (size 1.27 1.27))))
      )
      (pin input line (at -12.7 -7.62 0) (length 2.54)
        (name "CS" (effects (font (size 1.27 1.27))))
        (number "8" (effects (font (size 1.27 1.27))))
      )
      (pin output line (at -12.7 2.54 0) (length 2.54)
        (name "INT2" (effects (font (size 1.27 1.27))))
        (number "9" (effects (font (size 1.27 1.27))))
      )
    )
  )
  (symbol "Sensor_Motion:LSM303C" (in_bom yes) (on_board yes)
    (property "Reference" "U" (id 0) (at -11.43 15.24 0)
      (effects (font (size 1.27 1.27)) (justify right))
    )
    (property "Value" "LSM303C" (id 1) (at -5.08 13.97 0)
      (effects (font (size 1.27 1.27)) (justify right top))
    )
    (property "Footprint" "" (id 2) (at -10.16 -17.78 0)
      (effects (font (size 1.27 1.27)) (justify left) hide)
    )
    (property "Datasheet" "www.st.com/resource/en/datasheet/lsm303c.pdf" (id 3) (at 2.54 -16.51 0)
      (effects (font (size 1.27 1.27)) hide)
    )
    (property "ki_keywords" "Accelerometer Magnetometer MEMS" (id 4) (at 0 0 0)
      (effects (font (size 1.27 1.27)) hide)
    )
    (property "ki_description" "I2C/SPI, 3D Accelerometer and 3D Magnetometer" (id 5) (at 0 0 0)
      (effects (font (size 1.27 1.27)) hide)
    )
    (property "ki_fp_filters" "LGA*2x2mm*P0.5mm*" (id 6) (at 0 0 0)
      (effects (font (size 1.27 1.27)) hide)
    )
    (symbol "LSM303C_0_1"
      (rectangle (start 13.97 11.43) (end -13.97 -11.43)
        (stroke (width 0.254)) (fill (type background))
      )
    )
    (symbol "LSM303C_1_1"
      (pin output line (at -17.78 5.08 0) (length 3.81)
        (name "SCL/SPC" (effects (font (size 1.27 1.27))))
        (number "1" (effects (font (size 1.27 1.27))))
      )
      (pin power_in line (at 0 15.24 270) (length 3.81)
        (name "VDDIO" (effects (font (size 1.27 1.27))))
        (number "10" (effects (font (size 1.27 1.27))))
      )
      (pin output line (at 17.78 5.08 180) (length 3.81)
        (name "DRDY_MAG" (effects (font (size 1.27 1.27))))
        (number "11" (effects (font (size 1.27 1.27))))
      )
      (pin output line (at 17.78 0 180) (length 3.81)
        (name "INT_XL" (effects (font (size 1.27 1.27))))
        (number "12" (effects (font (size 1.27 1.27))))
      )
      (pin input line (at -17.78 0 0) (length 3.81)
        (name "CS_XL" (effects (font (size 1.27 1.27))))
        (number "2" (effects (font (size 1.27 1.27))))
      )
      (pin input line (at -17.78 -2.54 0) (length 3.81)
        (name "CS_MAG" (effects (font (size 1.27 1.27))))
        (number "3" (effects (font (size 1.27 1.27))))
      )
      (pin bidirectional line (at -17.78 2.54 0) (length 3.81)
        (name "SDA/SDI/SDO" (effects (font (size 1.27 1.27))))
        (number "4" (effects (font (size 1.27 1.27))))
      )
      (pin passive line (at 17.78 -5.08 180) (length 3.81)
        (name "C1" (effects (font (size 1.27 1.27))))
        (number "5" (effects (font (size 1.27 1.27))))
      )
      (pin power_in line (at 0 -15.24 90) (length 3.81)
        (name "GND" (effects (font (size 1.27 1.27))))
        (number "6" (effects (font (size 1.27 1.27))))
      )
      (pin output line (at 17.78 2.54 180) (length 3.81)
        (name "INT_MAG" (effects (font (size 1.27 1.27))))
        (number "7" (effects (font (size 1.27 1.27))))
      )
      (pin power_in line (at 2.54 -15.24 90) (length 3.81)
        (name "GND" (effects (font (size 1.27 1.27))))
        (number "8" (effects (font (size 1.27 1.27))))
      )
      (pin power_in line (at 2.54 15.24 270) (length 3.81)
        (name "VDD" (effects (font (size 1.27 1.27))))
        (number "9" (effects (font (size 1.27 1.27))))
      )
    )
  )
  (symbol "Sensor_Motion:LSM303D" (in_bom yes) (on_board yes)
    (property "Reference" "U" (id 0) (at -5.08 17.145 0)
      (effects (font (size 1.27 1.27)) (justify right))
    )
    (property "Value" "LSM303D" (id 1) (at -5.08 15.24 0)
      (effects (font (size 1.27 1.27)) (justify right))
    )
    (property "Footprint" "Package_LGA:LGA-16_3x3mm_P0.5mm" (id 2) (at 6.35 -15.24 0)
      (effects (font (size 1.27 1.27)) (justify left) hide)
    )
    (property "Datasheet" "http://www.st.com/web/en/resource/technical/document/datasheet/DM00057547.pdf" (id 3) (at 3.81 19.05 0)
      (effects (font (size 1.27 1.27)) hide)
    )
    (property "ki_keywords" "Accelerometer Magnetometer MEMS" (id 4) (at 0 0 0)
      (effects (font (size 1.27 1.27)) hide)
    )
    (property "ki_description" "[not recommended for new designs] I2C/SPI, 3D Accelerometer and 3D Magnetometer" (id 5) (at 0 0 0)
      (effects (font (size 1.27 1.27)) hide)
    )
    (property "ki_fp_filters" "LGA*" (id 6) (at 0 0 0)
      (effects (font (size 1.27 1.27)) hide)
    )
    (symbol "LSM303D_0_1"
      (rectangle (start 8.89 13.97) (end -8.89 -13.97)
        (stroke (width 0.254)) (fill (type background))
      )
    )
    (symbol "LSM303D_1_1"
      (pin power_in line (at -2.54 17.78 270) (length 3.81)
        (name "VDDIO" (effects (font (size 1.27 1.27))))
        (number "1" (effects (font (size 1.27 1.27))))
      )
      (pin power_in line (at -2.54 -17.78 90) (length 3.81)
        (name "GND" (effects (font (size 1.27 1.27))))
        (number "10" (effects (font (size 1.27 1.27))))
      )
      (pin output line (at -12.7 -7.62 0) (length 3.81)
        (name "INT1" (effects (font (size 1.27 1.27))))
        (number "11" (effects (font (size 1.27 1.27))))
      )
      (pin power_in line (at 0 -17.78 90) (length 3.81)
        (name "GND" (effects (font (size 1.27 1.27))))
        (number "12" (effects (font (size 1.27 1.27))))
      )
      (pin power_in line (at 2.54 -17.78 90) (length 3.81)
        (name "GND" (effects (font (size 1.27 1.27))))
        (number "13" (effects (font (size 1.27 1.27))))
      )
      (pin power_in line (at 2.54 17.78 270) (length 3.81)
        (name "VDD" (effects (font (size 1.27 1.27))))
        (number "14" (effects (font (size 1.27 1.27))))
      )
      (pin passive line (at 12.7 -7.62 180) (length 3.81)
        (name "C1" (effects (font (size 1.27 1.27))))
        (number "15" (effects (font (size 1.27 1.27))))
      )
      (pin power_in line (at 5.08 -17.78 90) (length 3.81)
        (name "GND" (effects (font (size 1.27 1.27))))
        (number "16" (effects (font (size 1.27 1.27))))
      )
      (pin passive line (at 12.7 7.62 180) (length 3.81)
        (name "SETC" (effects (font (size 1.27 1.27))))
        (number "2" (effects (font (size 1.27 1.27))))
      )
      (pin passive line (at 12.7 -5.08 180) (length 3.81)
        (name "SETP" (effects (font (size 1.27 1.27))))
        (number "3" (effects (font (size 1.27 1.27))))
      )
      (pin input line (at -12.7 5.08 0) (length 3.81)
        (name "SCL/SPC" (effects (font (size 1.27 1.27))))
        (number "4" (effects (font (size 1.27 1.27))))
      )
      (pin power_in line (at -5.08 -17.78 90) (length 3.81)
        (name "GND" (effects (font (size 1.27 1.27))))
        (number "5" (effects (font (size 1.27 1.27))))
      )
      (pin bidirectional line (at -12.7 2.54 0) (length 3.81)
        (name "SDA/SDI/SDO" (effects (font (size 1.27 1.27))))
        (number "6" (effects (font (size 1.27 1.27))))
      )
      (pin output line (at -12.7 0 0) (length 3.81)
        (name "SDO/SAO" (effects (font (size 1.27 1.27))))
        (number "7" (effects (font (size 1.27 1.27))))
      )
      (pin input line (at -12.7 7.62 0) (length 3.81)
        (name "CS" (effects (font (size 1.27 1.27))))
        (number "8" (effects (font (size 1.27 1.27))))
      )
      (pin output line (at -12.7 -5.08 0) (length 3.81)
        (name "INT2" (effects (font (size 1.27 1.27))))
        (number "9" (effects (font (size 1.27 1.27))))
      )
    )
  )
  (symbol "Sensor_Motion:LSM303DLHC" (in_bom yes) (on_board yes)
    (property "Reference" "U" (id 0) (at -5.08 17.145 0)
      (effects (font (size 1.27 1.27)) (justify right))
    )
    (property "Value" "LSM303DLHC" (id 1) (at -5.08 15.24 0)
      (effects (font (size 1.27 1.27)) (justify right))
    )
    (property "Footprint" "Package_LGA:LGA-14_3x5mm_P0.8mm_LayoutBorder1x6y" (id 2) (at 3.81 -15.24 0)
      (effects (font (size 1.27 1.27)) (justify left) hide)
    )
    (property "Datasheet" "http://www.st.com/web/en/resource/technical/document/datasheet/DM00027543.pdf" (id 3) (at 3.81 19.05 0)
      (effects (font (size 1.27 1.27)) hide)
    )
    (property "ki_keywords" "Accelerometer Magnetometer MEMS" (id 4) (at 0 0 0)
      (effects (font (size 1.27 1.27)) hide)
    )
    (property "ki_description" "[not recommended for new designs] I2C, 3D Accelerometer and 3D Magnetometer" (id 5) (at 0 0 0)
      (effects (font (size 1.27 1.27)) hide)
    )
    (property "ki_fp_filters" "LGA*3x5mm*P0.8mm*LayoutBorder1x6y*" (id 6) (at 0 0 0)
      (effects (font (size 1.27 1.27)) hide)
    )
    (symbol "LSM303DLHC_0_1"
      (rectangle (start 8.89 13.97) (end -8.89 -13.97)
        (stroke (width 0.254)) (fill (type background))
      )
    )
    (symbol "LSM303DLHC_1_1"
      (pin power_in line (at -2.54 17.78 270) (length 3.81)
        (name "VDDIO" (effects (font (size 1.27 1.27))))
        (number "1" (effects (font (size 1.27 1.27))))
      )
      (pin power_in line (at 0 -17.78 90) (length 3.81)
        (name "GND" (effects (font (size 1.27 1.27))))
        (number "10" (effects (font (size 1.27 1.27))))
      )
      (pin power_in line (at 2.54 -17.78 90) (length 3.81)
        (name "GND" (effects (font (size 1.27 1.27))))
        (number "11" (effects (font (size 1.27 1.27))))
      )
      (pin passive line (at 12.7 -5.08 180) (length 3.81)
        (name "SETP" (effects (font (size 1.27 1.27))))
        (number "12" (effects (font (size 1.27 1.27))))
      )
      (pin passive line (at 12.7 7.62 180) (length 3.81)
        (name "SETC" (effects (font (size 1.27 1.27))))
        (number "13" (effects (font (size 1.27 1.27))))
      )
      (pin power_in line (at 2.54 17.78 270) (length 3.81)
        (name "VDD" (effects (font (size 1.27 1.27))))
        (number "14" (effects (font (size 1.27 1.27))))
      )
      (pin input line (at -12.7 7.62 0) (length 3.81)
        (name "SCL" (effects (font (size 1.27 1.27))))
        (number "2" (effects (font (size 1.27 1.27))))
      )
      (pin bidirectional line (at -12.7 5.08 0) (length 3.81)
        (name "SDA" (effects (font (size 1.27 1.27))))
        (number "3" (effects (font (size 1.27 1.27))))
      )
      (pin output line (at -12.7 -5.08 0) (length 3.81)
        (name "INT2" (effects (font (size 1.27 1.27))))
        (number "4" (effects (font (size 1.27 1.27))))
      )
      (pin output line (at -12.7 -7.62 0) (length 3.81)
        (name "INT1" (effects (font (size 1.27 1.27))))
        (number "5" (effects (font (size 1.27 1.27))))
      )
      (pin passive line (at 12.7 -7.62 180) (length 3.81)
        (name "C1" (effects (font (size 1.27 1.27))))
        (number "6" (effects (font (size 1.27 1.27))))
      )
      (pin power_in line (at -2.54 -17.78 90) (length 3.81)
        (name "GND" (effects (font (size 1.27 1.27))))
        (number "7" (effects (font (size 1.27 1.27))))
      )
      (pin no_connect line (at 7.62 -2.54 180) (length 3.81) hide
        (name "NC" (effects (font (size 1.27 1.27))))
        (number "8" (effects (font (size 1.27 1.27))))
      )
      (pin output line (at -12.7 0 0) (length 3.81)
        (name "DRDY" (effects (font (size 1.27 1.27))))
        (number "9" (effects (font (size 1.27 1.27))))
      )
    )
  )
  (symbol "Sensor_Motion:LSM6DS3" (in_bom yes) (on_board yes)
    (property "Reference" "U" (id 0) (at -11.43 15.24 0)
      (effects (font (size 1.27 1.27)) (justify left))
    )
    (property "Value" "LSM6DS3" (id 1) (at -11.43 12.7 0)
      (effects (font (size 1.27 1.27)) (justify left bottom))
    )
    (property "Footprint" "Package_LGA:LGA-14_3x2.5mm_P0.5mm_LayoutBorder3x4y" (id 2) (at -10.16 -17.78 0)
      (effects (font (size 1.27 1.27)) (justify left) hide)
    )
    (property "Datasheet" "www.st.com/resource/en/datasheet/lsm6ds3.pdf" (id 3) (at 2.54 -16.51 0)
      (effects (font (size 1.27 1.27)) hide)
    )
    (property "ki_keywords" "Accelerometer Gyroscope MEMS" (id 4) (at 0 0 0)
      (effects (font (size 1.27 1.27)) hide)
    )
    (property "ki_description" "I2C/SPI, iNEMO inertial module: always-on 3D accelerometer and 3D gyroscope" (id 5) (at 0 0 0)
      (effects (font (size 1.27 1.27)) hide)
    )
    (property "ki_fp_filters" "LGA*3x2.5mm*P0.5mm*LayoutBorder3x4y*" (id 6) (at 0 0 0)
      (effects (font (size 1.27 1.27)) hide)
    )
    (symbol "LSM6DS3_0_1"
      (rectangle (start 11.43 11.43) (end -11.43 -11.43)
        (stroke (width 0.254)) (fill (type background))
      )
    )
    (symbol "LSM6DS3_1_1"
      (pin bidirectional line (at -15.24 7.62 0) (length 3.81)
        (name "SDO/SA0" (effects (font (size 1.27 1.27))))
        (number "1" (effects (font (size 1.27 1.27))))
      )
      (pin no_connect line (at 10.16 -5.08 180) (length 3.81) hide
        (name "NC" (effects (font (size 1.27 1.27))))
        (number "10" (effects (font (size 1.27 1.27))))
      )
      (pin no_connect line (at 10.16 -2.54 180) (length 3.81) hide
        (name "NC" (effects (font (size 1.27 1.27))))
        (number "11" (effects (font (size 1.27 1.27))))
      )
      (pin input line (at -15.24 -7.62 0) (length 3.81)
        (name "CS" (effects (font (size 1.27 1.27))))
        (number "12" (effects (font (size 1.27 1.27))))
      )
      (pin input line (at -15.24 -5.08 0) (length 3.81)
        (name "SCL" (effects (font (size 1.27 1.27))))
        (number "13" (effects (font (size 1.27 1.27))))
      )
      (pin bidirectional line (at -15.24 -2.54 0) (length 3.81)
        (name "SDA" (effects (font (size 1.27 1.27))))
        (number "14" (effects (font (size 1.27 1.27))))
      )
      (pin bidirectional line (at -15.24 5.08 0) (length 3.81)
        (name "SDX" (effects (font (size 1.27 1.27))))
        (number "2" (effects (font (size 1.27 1.27))))
      )
      (pin input line (at -15.24 2.54 0) (length 3.81)
        (name "SCX" (effects (font (size 1.27 1.27))))
        (number "3" (effects (font (size 1.27 1.27))))
      )
      (pin output line (at 15.24 7.62 180) (length 3.81)
        (name "INT1" (effects (font (size 1.27 1.27))))
        (number "4" (effects (font (size 1.27 1.27))))
      )
      (pin power_in line (at 0 15.24 270) (length 3.81)
        (name "VDDIO" (effects (font (size 1.27 1.27))))
        (number "5" (effects (font (size 1.27 1.27))))
      )
      (pin power_in line (at 0 -15.24 90) (length 3.81)
        (name "GND" (effects (font (size 1.27 1.27))))
        (number "6" (effects (font (size 1.27 1.27))))
      )
      (pin power_in line (at 2.54 -15.24 90) (length 3.81)
        (name "GND" (effects (font (size 1.27 1.27))))
        (number "7" (effects (font (size 1.27 1.27))))
      )
      (pin power_in line (at 2.54 15.24 270) (length 3.81)
        (name "VDD" (effects (font (size 1.27 1.27))))
        (number "8" (effects (font (size 1.27 1.27))))
      )
      (pin output line (at 15.24 5.08 180) (length 3.81)
        (name "INT2" (effects (font (size 1.27 1.27))))
        (number "9" (effects (font (size 1.27 1.27))))
      )
    )
  )
  (symbol "Sensor_Motion:LSM9DS1" (in_bom yes) (on_board yes)
    (property "Reference" "U" (id 0) (at -15.24 21.59 0)
      (effects (font (size 1.27 1.27)) (justify left))
    )
    (property "Value" "LSM9DS1" (id 1) (at -15.24 19.05 0)
      (effects (font (size 1.27 1.27)) (justify left))
    )
    (property "Footprint" "Package_LGA:LGA-24L_3x3.5mm_P0.43mm" (id 2) (at 38.1 19.05 0)
      (effects (font (size 1.27 1.27)) hide)
    )
    (property "Datasheet" "http://www.st.com/content/ccc/resource/technical/document/datasheet/1e/3f/2a/d6/25/eb/48/46/DM00103319.pdf/files/DM00103319.pdf/jcr:content/translations/en.DM00103319.pdf" (id 3) (at 0 2.54 0)
      (effects (font (size 1.27 1.27)) hide)
    )
    (property "ki_keywords" "I2C SPI IMU accelerometer gyroscope magnetometer" (id 4) (at 0 0 0)
      (effects (font (size 1.27 1.27)) hide)
    )
    (property "ki_description" "I2C SPI 9 axis IMU accelerometer gyroscope magnetometer" (id 5) (at 0 0 0)
      (effects (font (size 1.27 1.27)) hide)
    )
    (property "ki_fp_filters" "LGA*3x3.5mm*P0.43mm*" (id 6) (at 0 0 0)
      (effects (font (size 1.27 1.27)) hide)
    )
    (symbol "LSM9DS1_0_1"
      (rectangle (start -15.24 17.78) (end 15.24 -17.78)
        (stroke (width 0.254)) (fill (type background))
      )
    )
    (symbol "LSM9DS1_1_1"
      (pin power_in line (at 0 20.32 270) (length 2.54)
        (name "VDDIO" (effects (font (size 1.27 1.27))))
        (number "1" (effects (font (size 1.27 1.27))))
      )
      (pin output line (at 17.78 2.54 180) (length 2.54)
        (name "INT_M" (effects (font (size 1.27 1.27))))
        (number "10" (effects (font (size 1.27 1.27))))
      )
      (pin output line (at -17.78 -2.54 0) (length 2.54)
        (name "INT1_A/G" (effects (font (size 1.27 1.27))))
        (number "11" (effects (font (size 1.27 1.27))))
      )
      (pin output line (at -17.78 -5.08 0) (length 2.54)
        (name "INT2_A/G" (effects (font (size 1.27 1.27))))
        (number "12" (effects (font (size 1.27 1.27))))
      )
      (pin input line (at -17.78 -7.62 0) (length 2.54)
        (name "DEN_A/G" (effects (font (size 1.27 1.27))))
        (number "13" (effects (font (size 1.27 1.27))))
      )
      (pin bidirectional line (at 17.78 -2.54 180) (length 2.54)
        (name "RES" (effects (font (size 1.27 1.27))))
        (number "14" (effects (font (size 1.27 1.27))))
      )
      (pin bidirectional line (at 17.78 -5.08 180) (length 2.54)
        (name "RES" (effects (font (size 1.27 1.27))))
        (number "15" (effects (font (size 1.27 1.27))))
      )
      (pin bidirectional line (at 17.78 -7.62 180) (length 2.54)
        (name "RES" (effects (font (size 1.27 1.27))))
        (number "16" (effects (font (size 1.27 1.27))))
      )
      (pin bidirectional line (at 17.78 -10.16 180) (length 2.54)
        (name "RES" (effects (font (size 1.27 1.27))))
        (number "17" (effects (font (size 1.27 1.27))))
      )
      (pin bidirectional line (at 17.78 -12.7 180) (length 2.54)
        (name "RES" (effects (font (size 1.27 1.27))))
        (number "18" (effects (font (size 1.27 1.27))))
      )
      (pin power_in line (at -2.54 -20.32 90) (length 2.54)
        (name "GND" (effects (font (size 1.27 1.27))))
        (number "19" (effects (font (size 1.27 1.27))))
      )
      (pin input line (at -17.78 10.16 0) (length 2.54)
        (name "SCL/SPC" (effects (font (size 1.27 1.27))))
        (number "2" (effects (font (size 1.27 1.27))))
      )
      (pin power_in line (at 2.54 -20.32 90) (length 2.54)
        (name "GND" (effects (font (size 1.27 1.27))))
        (number "20" (effects (font (size 1.27 1.27))))
      )
      (pin passive line (at -17.78 -12.7 0) (length 2.54)
        (name "CAP" (effects (font (size 1.27 1.27))))
        (number "21" (effects (font (size 1.27 1.27))))
      )
      (pin power_in line (at 7.62 20.32 270) (length 2.54)
        (name "VDD" (effects (font (size 1.27 1.27))))
        (number "22" (effects (font (size 1.27 1.27))))
      )
      (pin power_in line (at 10.16 20.32 270) (length 2.54)
        (name "VDD" (effects (font (size 1.27 1.27))))
        (number "23" (effects (font (size 1.27 1.27))))
      )
      (pin passive line (at -17.78 -15.24 0) (length 2.54)
        (name "C1" (effects (font (size 1.27 1.27))))
        (number "24" (effects (font (size 1.27 1.27))))
      )
      (pin power_in line (at 2.54 20.32 270) (length 2.54)
        (name "VDDIO" (effects (font (size 1.27 1.27))))
        (number "3" (effects (font (size 1.27 1.27))))
      )
      (pin bidirectional line (at -17.78 7.62 0) (length 2.54)
        (name "SDA/SDI/SDO" (effects (font (size 1.27 1.27))))
        (number "4" (effects (font (size 1.27 1.27))))
      )
      (pin output line (at -17.78 0 0) (length 2.54)
        (name "SDO_A/G" (effects (font (size 1.27 1.27))))
        (number "5" (effects (font (size 1.27 1.27))))
      )
      (pin output line (at 17.78 7.62 180) (length 2.54)
        (name "SDO_M" (effects (font (size 1.27 1.27))))
        (number "6" (effects (font (size 1.27 1.27))))
      )
      (pin input line (at -17.78 2.54 0) (length 2.54)
        (name "CS_A/G" (effects (font (size 1.27 1.27))))
        (number "7" (effects (font (size 1.27 1.27))))
      )
      (pin input line (at 17.78 10.16 180) (length 2.54)
        (name "CS_M" (effects (font (size 1.27 1.27))))
        (number "8" (effects (font (size 1.27 1.27))))
      )
      (pin output line (at 17.78 5.08 180) (length 2.54)
        (name "DRDY_M" (effects (font (size 1.27 1.27))))
        (number "9" (effects (font (size 1.27 1.27))))
      )
    )
  )
  (symbol "Sensor_Motion:MMA8653FCR1" (in_bom yes) (on_board yes)
    (property "Reference" "U" (id 0) (at -7.62 8.89 0)
      (effects (font (size 1.27 1.27)) (justify left))
    )
    (property "Value" "MMA8653FCR1" (id 1) (at 1.27 -8.89 0)
      (effects (font (size 1.27 1.27)) (justify left))
    )
    (property "Footprint" "Package_DFN_QFN:DFN-10_2x2mm_P0.4mm" (id 2) (at 1.27 -11.43 0)
      (effects (font (size 1.27 1.27)) (justify left) hide)
    )
    (property "Datasheet" "http://cache.freescale.com/files/sensors/doc/data_sheet/MMA8653FC.pdf" (id 3) (at -5.08 -1.27 0)
      (effects (font (size 1.27 1.27)) hide)
    )
    (property "ki_keywords" "Accelerometer I2C" (id 4) (at 0 0 0)
      (effects (font (size 1.27 1.27)) hide)
    )
    (property "ki_description" "3-Axis 10-bit Digital Accelerometer with I2C interface" (id 5) (at 0 0 0)
      (effects (font (size 1.27 1.27)) hide)
    )
    (property "ki_fp_filters" "DFN*2x2mm*P0.4mm*" (id 6) (at 0 0 0)
      (effects (font (size 1.27 1.27)) hide)
    )
    (symbol "MMA8653FCR1_0_1"
      (rectangle (start -7.62 7.62) (end 7.62 -7.62)
        (stroke (width 0.254)) (fill (type background))
      )
    )
    (symbol "MMA8653FCR1_1_1"
      (pin power_in line (at 0 10.16 270) (length 2.54)
        (name "Vdd" (effects (font (size 1.27 1.27))))
        (number "1" (effects (font (size 1.27 1.27))))
      )
      (pin input line (at -10.16 5.08 0) (length 2.54)
        (name "SDA" (effects (font (size 1.27 1.27))))
        (number "10" (effects (font (size 1.27 1.27))))
      )
      (pin input line (at -10.16 2.54 0) (length 2.54)
        (name "SCL" (effects (font (size 1.27 1.27))))
        (number "2" (effects (font (size 1.27 1.27))))
      )
      (pin output line (at 10.16 0 180) (length 2.54)
        (name "INT1" (effects (font (size 1.27 1.27))))
        (number "3" (effects (font (size 1.27 1.27))))
      )
      (pin input line (at -10.16 0 0) (length 2.54)
        (name "BYP" (effects (font (size 1.27 1.27))))
        (number "4" (effects (font (size 1.27 1.27))))
      )
      (pin output line (at 10.16 -2.54 180) (length 2.54)
        (name "INT2" (effects (font (size 1.27 1.27))))
        (number "5" (effects (font (size 1.27 1.27))))
      )
      (pin power_in line (at -5.08 -10.16 90) (length 2.54)
        (name "GND" (effects (font (size 1.27 1.27))))
        (number "6" (effects (font (size 1.27 1.27))))
      )
      (pin power_in line (at 0 -10.16 90) (length 2.54)
        (name "GND" (effects (font (size 1.27 1.27))))
        (number "7" (effects (font (size 1.27 1.27))))
      )
      (pin power_in line (at 2.54 10.16 270) (length 2.54)
        (name "Vddio" (effects (font (size 1.27 1.27))))
        (number "8" (effects (font (size 1.27 1.27))))
      )
      (pin power_in line (at -2.54 -10.16 90) (length 2.54)
        (name "GND" (effects (font (size 1.27 1.27))))
        (number "9" (effects (font (size 1.27 1.27))))
      )
    )
  )
  (symbol "Sensor_Motion:MPU-6000" (in_bom yes) (on_board yes)
    (property "Reference" "U" (id 0) (at -11.43 13.97 0)
      (effects (font (size 1.27 1.27)))
    )
    (property "Value" "MPU-6000" (id 1) (at 7.62 -13.97 0)
      (effects (font (size 1.27 1.27)))
    )
    (property "Footprint" "Sensor_Motion:InvenSense_QFN-24_4x4mm_P0.5mm" (id 2) (at 0 -20.32 0)
      (effects (font (size 1.27 1.27)) hide)
    )
    (property "Datasheet" "https://store.invensense.com/datasheets/invensense/MPU-6050_DataSheet_V3%204.pdf" (id 3) (at 0 -3.81 0)
      (effects (font (size 1.27 1.27)) hide)
    )
    (property "ki_keywords" "mems" (id 4) (at 0 0 0)
      (effects (font (size 1.27 1.27)) hide)
    )
    (property "ki_description" "InvenSense 6-Axis Motion Sensor, Gyroscope, Accelerometer, I2C/SPI" (id 5) (at 0 0 0)
      (effects (font (size 1.27 1.27)) hide)
    )
    (property "ki_fp_filters" "*QFN-24*4x4mm*P0.5mm*" (id 6) (at 0 0 0)
      (effects (font (size 1.27 1.27)) hide)
    )
    (symbol "MPU-6000_0_1"
      (rectangle (start -12.7 12.7) (end 12.7 -12.7)
        (stroke (width 0.254)) (fill (type background))
      )
    )
    (symbol "MPU-6000_1_1"
      (pin input clock (at -17.78 -7.62 0) (length 5.08)
        (name "CLKIN" (effects (font (size 1.27 1.27))))
        (number "1" (effects (font (size 1.27 1.27))))
      )
      (pin passive line (at 17.78 -7.62 180) (length 5.08)
        (name "REGOUT" (effects (font (size 1.27 1.27))))
        (number "10" (effects (font (size 1.27 1.27))))
      )
      (pin input line (at -17.78 -5.08 0) (length 5.08)
        (name "FSYNC" (effects (font (size 1.27 1.27))))
        (number "11" (effects (font (size 1.27 1.27))))
      )
      (pin output line (at 17.78 7.62 180) (length 5.08)
        (name "INT" (effects (font (size 1.27 1.27))))
        (number "12" (effects (font (size 1.27 1.27))))
      )
      (pin power_in line (at 0 17.78 270) (length 5.08)
        (name "VDD" (effects (font (size 1.27 1.27))))
        (number "13" (effects (font (size 1.27 1.27))))
      )
      (pin power_in line (at 0 -17.78 90) (length 5.08)
        (name "GND" (effects (font (size 1.27 1.27))))
        (number "18" (effects (font (size 1.27 1.27))))
      )
      (pin passive line (at 17.78 -5.08 180) (length 5.08)
        (name "CPOUT" (effects (font (size 1.27 1.27))))
        (number "20" (effects (font (size 1.27 1.27))))
      )
      (pin input line (at -17.78 2.54 0) (length 5.08)
        (name "SCL/SCLK" (effects (font (size 1.27 1.27))))
        (number "23" (effects (font (size 1.27 1.27))))
      )
      (pin bidirectional line (at -17.78 7.62 0) (length 5.08)
        (name "SDA/MOSI" (effects (font (size 1.27 1.27))))
        (number "24" (effects (font (size 1.27 1.27))))
      )
      (pin bidirectional line (at 17.78 2.54 180) (length 5.08)
        (name "AUX_SDA" (effects (font (size 1.27 1.27))))
        (number "6" (effects (font (size 1.27 1.27))))
      )
      (pin output clock (at 17.78 0 180) (length 5.08)
        (name "AUX_SCL" (effects (font (size 1.27 1.27))))
        (number "7" (effects (font (size 1.27 1.27))))
      )
      (pin input line (at -17.78 0 0) (length 5.08)
        (name "~CS" (effects (font (size 1.27 1.27))))
        (number "8" (effects (font (size 1.27 1.27))))
      )
      (pin bidirectional line (at -17.78 5.08 0) (length 5.08)
        (name "AD0/MISO" (effects (font (size 1.27 1.27))))
        (number "9" (effects (font (size 1.27 1.27))))
      )
    )
  )
  (symbol "Sensor_Motion:MPU-6050" (in_bom yes) (on_board yes)
    (property "Reference" "U" (id 0) (at -11.43 13.97 0)
      (effects (font (size 1.27 1.27)))
    )
    (property "Value" "MPU-6050" (id 1) (at 7.62 -13.97 0)
      (effects (font (size 1.27 1.27)))
    )
    (property "Footprint" "Sensor_Motion:InvenSense_QFN-24_4x4mm_P0.5mm" (id 2) (at 0 -20.32 0)
      (effects (font (size 1.27 1.27)) hide)
    )
    (property "Datasheet" "https://store.invensense.com/datasheets/invensense/MPU-6050_DataSheet_V3%204.pdf" (id 3) (at 0 -3.81 0)
      (effects (font (size 1.27 1.27)) hide)
    )
    (property "ki_keywords" "mems" (id 4) (at 0 0 0)
      (effects (font (size 1.27 1.27)) hide)
    )
    (property "ki_description" "InvenSense 6-Axis Motion Sensor, Gyroscope, Accelerometer, I2C" (id 5) (at 0 0 0)
      (effects (font (size 1.27 1.27)) hide)
    )
    (property "ki_fp_filters" "*QFN-24*4x4mm*P0.5mm*" (id 6) (at 0 0 0)
      (effects (font (size 1.27 1.27)) hide)
    )
    (symbol "MPU-6050_0_1"
      (rectangle (start -12.7 12.7) (end 12.7 -12.7)
        (stroke (width 0.254)) (fill (type background))
      )
    )
    (symbol "MPU-6050_1_1"
      (pin input clock (at -17.78 -7.62 0) (length 5.08)
        (name "CLKIN" (effects (font (size 1.27 1.27))))
        (number "1" (effects (font (size 1.27 1.27))))
      )
      (pin passive line (at 17.78 -7.62 180) (length 5.08)
        (name "REGOUT" (effects (font (size 1.27 1.27))))
        (number "10" (effects (font (size 1.27 1.27))))
      )
      (pin input line (at -17.78 -5.08 0) (length 5.08)
        (name "FSYNC" (effects (font (size 1.27 1.27))))
        (number "11" (effects (font (size 1.27 1.27))))
      )
      (pin output line (at 17.78 7.62 180) (length 5.08)
        (name "INT" (effects (font (size 1.27 1.27))))
        (number "12" (effects (font (size 1.27 1.27))))
      )
      (pin power_in line (at 2.54 17.78 270) (length 5.08)
        (name "VDD" (effects (font (size 1.27 1.27))))
        (number "13" (effects (font (size 1.27 1.27))))
      )
      (pin power_in line (at 0 -17.78 90) (length 5.08)
        (name "GND" (effects (font (size 1.27 1.27))))
        (number "18" (effects (font (size 1.27 1.27))))
      )
      (pin passive line (at 17.78 -5.08 180) (length 5.08)
        (name "CPOUT" (effects (font (size 1.27 1.27))))
        (number "20" (effects (font (size 1.27 1.27))))
      )
      (pin input line (at -17.78 5.08 0) (length 5.08)
        (name "SCL" (effects (font (size 1.27 1.27))))
        (number "23" (effects (font (size 1.27 1.27))))
      )
      (pin bidirectional line (at -17.78 7.62 0) (length 5.08)
        (name "SDA" (effects (font (size 1.27 1.27))))
        (number "24" (effects (font (size 1.27 1.27))))
      )
      (pin bidirectional line (at 17.78 2.54 180) (length 5.08)
        (name "AUX_SDA" (effects (font (size 1.27 1.27))))
        (number "6" (effects (font (size 1.27 1.27))))
      )
      (pin output clock (at 17.78 0 180) (length 5.08)
        (name "AUX_SCL" (effects (font (size 1.27 1.27))))
        (number "7" (effects (font (size 1.27 1.27))))
      )
      (pin power_in line (at -2.54 17.78 270) (length 5.08)
        (name "VDDIO" (effects (font (size 1.27 1.27))))
        (number "8" (effects (font (size 1.27 1.27))))
      )
      (pin input line (at -17.78 2.54 0) (length 5.08)
        (name "AD0" (effects (font (size 1.27 1.27))))
        (number "9" (effects (font (size 1.27 1.27))))
      )
    )
  )
  (symbol "Sensor_Motion:MPU-9150" (in_bom yes) (on_board yes)
    (property "Reference" "U" (id 0) (at -11.43 13.97 0)
      (effects (font (size 1.27 1.27)))
    )
    (property "Value" "MPU-9150" (id 1) (at 8.89 -13.97 0)
      (effects (font (size 1.27 1.27)))
    )
    (property "Footprint" "Sensor_Motion:InvenSense_QFN-24_4x4mm_P0.5mm" (id 2) (at 0 -20.32 0)
      (effects (font (size 1.27 1.27)) hide)
    )
    (property "Datasheet" "https://www.invensense.com/wp-content/uploads/2015/02/MPU-9150-Datasheet.pdf" (id 3) (at 0 -3.81 0)
      (effects (font (size 1.27 1.27)) hide)
    )
    (property "ki_keywords" "mems magnetometer" (id 4) (at 0 0 0)
      (effects (font (size 1.27 1.27)) hide)
    )
    (property "ki_description" "InvenSense 9-Axis Motion Sensor, Accelerometer, Gyroscope, Compass, I2C" (id 5) (at 0 0 0)
      (effects (font (size 1.27 1.27)) hide)
    )
    (property "ki_fp_filters" "*QFN-24*4x4mm*P0.5mm*" (id 6) (at 0 0 0)
      (effects (font (size 1.27 1.27)) hide)
    )
    (symbol "MPU-9150_0_1"
      (rectangle (start -12.7 12.7) (end 12.7 -12.7)
        (stroke (width 0.254)) (fill (type background))
      )
    )
    (symbol "MPU-9150_1_1"
      (pin input clock (at -17.78 -7.62 0) (length 5.08)
        (name "CLKIN" (effects (font (size 1.27 1.27))))
        (number "1" (effects (font (size 1.27 1.27))))
      )
      (pin passive line (at 17.78 -7.62 180) (length 5.08)
        (name "REGOUT" (effects (font (size 1.27 1.27))))
        (number "10" (effects (font (size 1.27 1.27))))
      )
      (pin input line (at -17.78 -5.08 0) (length 5.08)
        (name "FSYNC" (effects (font (size 1.27 1.27))))
        (number "11" (effects (font (size 1.27 1.27))))
      )
      (pin output line (at 17.78 7.62 180) (length 5.08)
        (name "INT" (effects (font (size 1.27 1.27))))
        (number "12" (effects (font (size 1.27 1.27))))
      )
      (pin power_in line (at 5.08 17.78 270) (length 5.08)
        (name "VDD" (effects (font (size 1.27 1.27))))
        (number "13" (effects (font (size 1.27 1.27))))
      )
      (pin power_in line (at -2.54 -17.78 90) (length 5.08)
        (name "GND" (effects (font (size 1.27 1.27))))
        (number "15" (effects (font (size 1.27 1.27))))
      )
      (pin power_in line (at 0 -17.78 90) (length 5.08)
        (name "GND" (effects (font (size 1.27 1.27))))
        (number "17" (effects (font (size 1.27 1.27))))
      )
      (pin power_in line (at 2.54 -17.78 90) (length 5.08)
        (name "GND" (effects (font (size 1.27 1.27))))
        (number "18" (effects (font (size 1.27 1.27))))
      )
      (pin passive line (at 17.78 -5.08 180) (length 5.08)
        (name "CPOUT" (effects (font (size 1.27 1.27))))
        (number "20" (effects (font (size 1.27 1.27))))
      )
      (pin input line (at -17.78 5.08 0) (length 5.08)
        (name "SCL" (effects (font (size 1.27 1.27))))
        (number "23" (effects (font (size 1.27 1.27))))
      )
      (pin bidirectional line (at -17.78 7.62 0) (length 5.08)
        (name "SDA" (effects (font (size 1.27 1.27))))
        (number "24" (effects (font (size 1.27 1.27))))
      )
      (pin power_in line (at 2.54 17.78 270) (length 5.08)
        (name "VDD" (effects (font (size 1.27 1.27))))
        (number "3" (effects (font (size 1.27 1.27))))
      )
      (pin bidirectional line (at 17.78 2.54 180) (length 5.08)
        (name "AUX_SDA" (effects (font (size 1.27 1.27))))
        (number "6" (effects (font (size 1.27 1.27))))
      )
      (pin output clock (at 17.78 0 180) (length 5.08)
        (name "AUX_SCL" (effects (font (size 1.27 1.27))))
        (number "7" (effects (font (size 1.27 1.27))))
      )
      (pin power_in line (at -2.54 17.78 270) (length 5.08)
        (name "VDDIO" (effects (font (size 1.27 1.27))))
        (number "8" (effects (font (size 1.27 1.27))))
      )
      (pin input line (at -17.78 2.54 0) (length 5.08)
        (name "AD0" (effects (font (size 1.27 1.27))))
        (number "9" (effects (font (size 1.27 1.27))))
      )
    )
  )
  (symbol "Sensor_Motion:MPU-9250" (in_bom yes) (on_board yes)
    (property "Reference" "U" (id 0) (at -11.43 19.05 0)
      (effects (font (size 1.27 1.27)))
    )
    (property "Value" "MPU-9250" (id 1) (at 7.62 -19.05 0)
      (effects (font (size 1.27 1.27)))
    )
    (property "Footprint" "Sensor_Motion:InvenSense_QFN-24_3x3mm_P0.4mm" (id 2) (at 0 -25.4 0)
      (effects (font (size 1.27 1.27)) hide)
    )
    (property "Datasheet" "https://store.invensense.com/datasheets/invensense/MPU9250REV1.0.pdf" (id 3) (at 0 -3.81 0)
      (effects (font (size 1.27 1.27)) hide)
    )
    (property "ki_keywords" "mems magnetometer" (id 4) (at 0 0 0)
      (effects (font (size 1.27 1.27)) hide)
    )
    (property "ki_description" "InvenSense 9-Axis Motion Sensor, Accelerometer, Gyroscope, Compass, I2C/SPI" (id 5) (at 0 0 0)
      (effects (font (size 1.27 1.27)) hide)
    )
    (property "ki_fp_filters" "*QFN*3x3mm*P0.4mm*" (id 6) (at 0 0 0)
      (effects (font (size 1.27 1.27)) hide)
    )
    (symbol "MPU-9250_0_1"
      (rectangle (start -12.7 17.78) (end 12.7 -17.78)
        (stroke (width 0.254)) (fill (type background))
      )
    )
    (symbol "MPU-9250_1_1"
      (pin input line (at 17.78 -7.62 180) (length 5.08)
        (name "RESV_VDDIO" (effects (font (size 1.27 1.27))))
        (number "1" (effects (font (size 1.27 1.27))))
      )
      (pin passive line (at 17.78 -5.08 180) (length 5.08)
        (name "REGOUT" (effects (font (size 1.27 1.27))))
        (number "10" (effects (font (size 1.27 1.27))))
      )
      (pin input line (at -17.78 -5.08 0) (length 5.08)
        (name "FSYNC" (effects (font (size 1.27 1.27))))
        (number "11" (effects (font (size 1.27 1.27))))
      )
      (pin output line (at 17.78 7.62 180) (length 5.08)
        (name "INT" (effects (font (size 1.27 1.27))))
        (number "12" (effects (font (size 1.27 1.27))))
      )
      (pin power_in line (at 2.54 22.86 270) (length 5.08)
        (name "VDD" (effects (font (size 1.27 1.27))))
        (number "13" (effects (font (size 1.27 1.27))))
      )
      (pin power_in line (at 0 -22.86 90) (length 5.08)
        (name "GND" (effects (font (size 1.27 1.27))))
        (number "18" (effects (font (size 1.27 1.27))))
      )
      (pin power_in line (at 17.78 -10.16 180) (length 5.08)
        (name "RESV_GND" (effects (font (size 1.27 1.27))))
        (number "20" (effects (font (size 1.27 1.27))))
      )
      (pin bidirectional line (at 17.78 2.54 180) (length 5.08)
        (name "AUX_SDA" (effects (font (size 1.27 1.27))))
        (number "21" (effects (font (size 1.27 1.27))))
      )
      (pin input line (at -17.78 0 0) (length 5.08)
        (name "~CS" (effects (font (size 1.27 1.27))))
        (number "22" (effects (font (size 1.27 1.27))))
      )
      (pin input line (at -17.78 2.54 0) (length 5.08)
        (name "SCL/SCLK" (effects (font (size 1.27 1.27))))
        (number "23" (effects (font (size 1.27 1.27))))
      )
      (pin bidirectional line (at -17.78 7.62 0) (length 5.08)
        (name "SDA/MOSI" (effects (font (size 1.27 1.27))))
        (number "24" (effects (font (size 1.27 1.27))))
      )
      (pin output clock (at 17.78 0 180) (length 5.08)
        (name "AUX_SCL" (effects (font (size 1.27 1.27))))
        (number "7" (effects (font (size 1.27 1.27))))
      )
      (pin power_in line (at -2.54 22.86 270) (length 5.08)
        (name "VDDIO" (effects (font (size 1.27 1.27))))
        (number "8" (effects (font (size 1.27 1.27))))
      )
      (pin bidirectional line (at -17.78 5.08 0) (length 5.08)
        (name "AD0/MISO" (effects (font (size 1.27 1.27))))
        (number "9" (effects (font (size 1.27 1.27))))
      )
    )
  )
)
